4.0,2.0,1.0,0.0
4.0,2.0,1.0,0.0
4.0,2.0,1.0,0.0
4.0,2.0,1.0,0.0
3.9879397163120567,1.999816493955095,1.0,0.0
3.9517588652482267,1.9992659758203801,1.0,0.0
3.8793971631205673,1.99816493955095,1.0,0.0
3.7587943262411345,1.9963298791019,1.0,0.0
3.6022857987166494,1.993577288428325,1.0,0.0
3.422207024653833,1.9897236614853198,1.0,0.0
3.2308934481594056,1.9845854922279795,1.0,0.0
3.040680513340088,1.9785189982728846,1.0,0.0
2.8639036643026006,1.9718803972366152,1.0,0.0
2.7128983451536643,1.9650259067357516,1.0,0.0
2.6,1.9583117443868743,1.0,0.0
2.5375440729483283,1.9520941278065633,1.0,0.0
2.50890482944951,1.9467292746113993,1.0,0.0
2.497456534954407,1.9425734024179624,1.0,0.0
2.4865734549138803,1.9399827288428328,1.0,0.0
2.459629854778791,1.939313471502591,1.0,0.0
2.4,1.9409218480138173,1.0,0.0
2.291058156028369,1.945164075993092,1.0,0.0
2.1173551615445234,1.9523963730569953,1.0,0.0
1.8946918552290894,1.9629749568221075,1.0,0.0
1.6388690757626931,1.9772560449050092,1.0,0.0
1.3656876618259601,1.9910082037996546,1.0,0.0
1.0909484520995165,2.0,1.0,0.0
0.8304522852639873,2.0,1.0,0.0
0.6,1.9867767702936097,1.0,0.0
0.4153924349881797,1.956098877374784,1.0,0.0
0.29243042890915233,1.9037348877374782,1.0,0.0
0.22215130889598977,1.8254533678756475,1.0,0.0
0.19559240208176382,1.7170228842832467,1.0,0.0
0.20379103559954628,1.5742120034542313,1.0,0.0
0.23778453658240897,1.4,1.0,0.0
0.28861023216342374,1.2091177317213586,1.0,0.0
0.34730544947566233,1.0162960564191135,1.0,0.0
0.4049075156521966,0.8362658318940703,1.0,0.0
0.45245375782609837,0.6837579159470353,1.0,0.0
0.4809815031304394,0.5735031663788143,1.0,0.0
0.4952453757826098,0.5183757915947035,1.0,0.0
0.5,0.5,1.0,0.0
0.5,0.5,1.0,0.0
0.5,0.5,1.0,0.0
0.4968329174607541,0.46875,1.0,0.0
0.4873316698430163,0.375,1.0,0.0
0.46832917460754075,0.2130089570744499,1.0,0.0
0.4366583492150815,0.0,1.0,0.0
0.3891521111263926,-0.24680374244669934,1.0,0.0
0.32487376466196444,-0.5101791414889978,1.0,0.0
0.25119849892921003,-0.772903068350245,1.0,0.0
0.1755015030355424,-1.0177523942537907,1.0,0.0
0.10515796608837458,-1.2275039904229847,1.0,0.0
0.04754307719511955,-1.4,1.0,0.0
0.010032025463190389,-1.5382359727957249,1.0,0.0
0.0,-1.6452074586210486,1.0,0.0
0.02482218991296145,-1.7239100072868594,1.0,0.0
0.09187378430948773,-1.777339168604046,1.0,0.0
0.20852997229699188,-1.8084904923834972,1.0,0.0
0.3821659429828869,-1.8203595284361014,1.0,0.0
0.6,-1.8159418265727474,1.0,0.0
0.849250446981158,-1.7982329366043237,1.0,0.0
1.1171355875591882,-1.7702284083417192,1.0,0.0
1.3908737253669177,-1.7349237915958224,1.0,0.0
1.6576831640371732,-1.695314636177522,1.0,0.0
1.9047822072027822,-1.6543964918977065,1.0,0.0
2.119389158496572,-1.6151649085672648,1.0,0.0
2.2887223215513686,-1.5806154359970854,1.0,0.0
2.4,-1.553743623998057,1.0,0.0
2.4650749553018843,-1.5335897649987857,1.0,0.0
2.495799948916439,-1.5191941514278777,1.0,0.0
2.504027742303083,-1.509597075713939,1.0,0.0
2.5016110969212333,-1.5038388302855756,1.0,0.0
2.500402774230308,-1.5009597075713939,1.0,0.0
2.5,-1.5,1.0,0.0
2.5,-1.5,1.0,0.0
2.5,-1.5,1.0,0.0
2.49361328109695,-1.5,1.0,0.0
2.465419921645425,-1.5,1.0,0.0
2.4,-1.5,1.0,0.0
2.2819335945152486,-1.5,1.0,0.0
2.095800783545746,-1.5,1.0,0.0
1.857431645446067,-1.5,1.0,0.0
1.5873392931306394,-1.5,1.0,0.0
1.306036839513891,-1.5,1.0,0.0
1.0340373975102497,-1.5,1.0,0.0
0.7918540800341434,-1.5,1.0,0.0
0.6,-1.5,1.0,0.0
0.4789882703222473,-1.5,1.0,0.0
0.4180820039153133,-1.5,1.0,0.0
0.40542026875225734,-1.5,1.0,0.0
0.4291421328061387,-1.5,1.0,0.0
0.47738666405001673,-1.5,1.0,0.0
0.5382929304569507,-1.5,1.0,0.0
0.6,-1.5,1.0,0.0
0.6506469406522238,-1.5,1.0,0.0
0.6783728203866816,-1.5,1.0,0.0
0.6858596404021196,-1.5,1.0,0.0
0.6774365845348541,-1.5,1.0,0.0
0.6574328366212016,-1.5,1.0,0.0
0.630177580497478,-1.5,1.0,0.0
0.6,-1.5,1.0,0.0
0.5712292789650838,-1.5,1.0,0.0
0.5481946012290457,-1.5,1.0,0.0
0.535225150628202,-1.5,1.0,0.0
0.536650110998869,-1.5,1.0,0.0
0.5567986661773627,-1.5,1.0,0.0
0.6,-1.5,1.0,0.0
0.6705832963030968,-1.5,1.0,0.0
0.7647263264915698,-1.5,1.0,0.0
0.8786068619703356,-1.5,1.0,0.0
1.0084026741443108,-1.5,1.0,0.0
1.1502915344184121,-1.5,1.0,0.0
1.3004512141975562,-1.5,1.0,0.0
1.4550594848866594,-1.5,1.0,0.0
1.6102941178906385,-1.5,1.0,0.0
1.7623328846144102,-1.5,1.0,0.0
1.907353556462891,-1.5,1.0,0.0
2.0415339048409975,-1.5,1.0,0.0
2.1610517011536463,-1.5,1.0,0.0
2.262084716805754,-1.5,1.0,0.0
2.3408107232022375,-1.5,1.0,0.0
2.4,-1.5,1.0,0.0
2.442422826855944,-1.5,1.0,0.0
2.470849483426973,-1.5,1.0,0.0
2.48805024936999,-1.5,1.0,0.0
2.496795404341898,-1.5,1.0,0.0
2.4998552279996002,-1.5,1.0,0.0
2.5,-1.5,1.0,0.0
2.5,-1.5,1.0,0.0
2.5,-1.5,1.0,0.0
2.492774956485459,-1.5,1.0,0.0
2.471099825941837,-1.5,1.0,0.0
2.4388747824272965,-1.5,1.0,0.0
2.4,-1.5,1.0,0.0
2.3583756527181103,-1.5,1.0,0.0
2.3179019146397906,-1.5,1.0,0.0
2.2824789598232034,-1.5,1.0,0.0
2.2560069623265115,-1.5,1.0,0.0
2.2423860962078783,-1.5,1.0,0.0
2.2399825289933957,-1.5,1.0,0.0
2.247162428209156,-1.5,1.0,0.0
2.2622919613812518,-1.5,1.0,0.0
2.283737296035776,-1.5,1.0,0.0
2.30986459969882,-1.5,1.0,0.0
2.339040039896477,-1.5,1.0,0.0
2.36962978415484,-1.5,1.0,0.0
2.4,-1.5,1.0,0.0
2.42851685495805,-1.5,1.0,0.0
2.4535465165550825,-1.5,1.0,0.0
2.47345515231719,-1.5,1.0,0.0
2.4867275761585947,-1.5,1.0,0.0
2.4946910304634375,-1.5,1.0,0.0
2.4986727576158594,-1.5,1.0,0.0
2.5,-1.5,1.0,0.0
2.5,-1.5,1.0,0.0
2.5,-1.5,1.0,0.0
2.49,-1.5015109643613394,1.0,0.0
2.46,-1.5060438574453576,1.0,0.0
2.4,-1.5151096436133942,1.0,0.0
2.3,-1.5302192872267883,1.0,0.0
2.1499999999999995,-1.5528837526468795,1.0,0.0
1.9423267808485787,-1.5846140042350072,1.0,0.0
1.693012845465161,-1.6214520396876928,1.0,0.0
1.4180906967691704,-1.659439856701458,1.0,0.0
1.1335928376800308,-1.694619452972825,1.0,0.0
0.8555517711171661,-1.7230328261983145,1.0,0.0
0.6,-1.7407219740744488,1.0,0.0
0.3829700272479565,-1.7437288942977491,1.0,0.0
0.22049435578045945,-1.7280955845647372,1.0,0.0
0.1067662514597121,-1.6898640425719347,1.0,0.0
0.035978980147917616,-1.6250762660158633,1.0,0.0
0.002325807707279137,-1.5297742525930444,1.0,0.0
0.0,-1.4,1.0,0.0
0.023194822888283326,-1.2423207055299794,1.0,0.0
0.06610354223433232,-1.0633035664762327,1.0,0.0
0.12291942390035018,-0.8695157801320095,1.0,0.0
0.18783573374854012,-0.6675245437905596,1.0,0.0
0.25504573764110533,-0.46389705474513276,1.0,0.0
0.31874270144024897,-0.2652005102889788,1.0,0.0
0.3731198910081743,-0.07800210771534741,1.0,0.0
0.4154132606721162,0.09113095568251162,1.0,0.0
0.4471332879200727,0.2356314826113485,1.0,0.0
0.46979045024004157,0.3489322757779135,1.0,0.0
0.4848952251200208,0.4244661378889569,1.0,0.0
0.4939580900480084,0.46978645515558287,1.0,0.0
0.49848952251200207,0.49244661378889565,1.0,0.0
0.5,0.5,1.0,0.0
0.5,0.5,1.0,0.0
0.5,0.5,1.0,0.0
0.4993488736474901,0.49772727272727274,1.0,0.0
0.49739549458996035,0.4909090909090909,1.0,0.0
0.49348873647490094,0.4772727272727273,1.0,0.0
0.4869774729498019,0.4545454545454546,1.0,0.0
0.47721057766215336,0.4204545454545455,1.0,0.0
0.46353692425944537,0.3727272727272728,1.0,0.0
0.44530538638916806,0.3090909090909092,1.0,0.0
0.42186483769881156,0.22727272727272738,1.0,0.0
0.3925641518358659,0.125,1.0,0.0
0.35675220244782124,0.0,1.0,0.0
0.3137778631821676,-0.14878626406157486,1.0,0.0
0.26299000768639513,-0.31592658377738303,1.0,0.0
0.2057340718466776,-0.49598875074008286,1.0,0.0
0.14708339316333174,-0.6835405565423327,1.0,0.0
0.09211130913667431,-0.873149792776791,1.0,0.0
0.04589115726702206,-1.059384251036116,1.0,0.0
0.013496275054691663,-1.2368117229129663,1.0,0.0
0.0,-1.4,1.0,0.0
0.010475669603263758,-1.5435168738898755,1.0,0.0
0.04999662136479969,-1.6619301361752514,1.0,0.0
0.12363619278492452,-1.749807578448786,1.0,0.0
0.23646772136395502,-1.8102700733251353,1.0,0.0
0.3935645446022079,-1.846438493418955,1.0,0.0
0.6,-1.861433711344901,1.0,0.0
0.8422101342162833,-1.8583765997176296,1.0,0.0
1.10663099391001,-1.8403880311517964,1.0,0.0
1.3796986257401325,-1.8105888782620574,1.0,0.0
1.6478490763656024,-1.7721000136630685,1.0,0.0
1.897518392445372,-1.7280423099694855,1.0,0.0
2.1151426206383936,-1.6815366397959646,1.0,0.0
2.2871578076036183,-1.6357038757571614,1.0,0.0
2.4,-1.593664890467732,1.0,0.0
2.4657789865783717,-1.5585405565423323,1.0,0.0
2.4966045560895678,-1.5334517465956181,1.0,0.0
2.5045864972844223,-1.5167258732978088,1.0,0.0
2.501834598913769,-1.5066903493191233,1.0,0.0
2.5004586497284422,-1.501672587329781,1.0,0.0
2.5,-1.5,1.0,0.0
2.5,-1.5,1.0,0.0
2.5,-1.5,1.0,0.0
2.4976180627882756,-1.4999226819691935,1.0,0.0
2.4904722511531023,-1.4996907278767744,1.0,0.0
2.476180627882756,-1.499226819691936,1.0,0.0
2.4523612557655112,-1.498453639383872,1.0,0.0
2.4277755223499904,-1.497293868921776,1.0,0.0
2.411184815184815,-1.4956701902748417,1.0,0.0
2.411350521818607,-1.4935052854122624,1.0,0.0
2.4370340297999875,-1.4907218363032317,1.0,0.0
2.496996726677578,-1.4872425249169436,1.0,0.0
2.6,-1.4829900332225914,1.0,0.0
2.7548052373158756,-1.478068916284561,1.0,0.0
2.9508303327877794,-1.4725837291672386,1.0,0.0
3.1774931805782867,-1.4666390269350098,1.0,0.0
3.4242116748499725,-1.4603393646522609,1.0,0.0
3.680403709765412,-1.4537892973833775,1.0,0.0
3.9354871794871795,-1.4470933801927457,1.0,0.0
4.178879978177851,-1.4403561681447514,1.0,0.0
4.4,-1.4336822163037806,1.0,0.0
4.588265139116204,-1.427176079734219,1.0,0.0
4.733093289689035,-1.4209423135004529,1.0,0.0
4.840022211830723,-1.4150854726668678,1.0,0.0
4.914589665653496,-1.40971011229785,1.0,0.0
4.962333411269582,-1.4049207874577851,1.0,0.0
4.988791208791209,-1.4008220532110593,1.0,0.0
4.999500818330605,-1.3975184646220584,1.0,0.0
5.0,-1.3951145767551685,1.0,0.0
4.99582651391162,-1.3937149446747752,1.0,0.0
4.992518120177694,-1.3934241234452647,1.0,0.0
4.9956125789104515,-1.3943466681310228,1.0,0.0
5.0,-1.396587133796436,1.0,0.0
5.0,-1.4,1.0,0.0
4.98993219546411,-1.4044397463002114,1.0,0.0
4.96411620294599,-1.409760852255567,1.0,0.0
4.916871638999299,-1.415817797424563,1.0,0.0
4.8425181201776955,-1.4224650613656957,1.0,0.0
4.735375263034839,-1.429557123637462,1.0,0.0
4.589762684124387,-1.4369484637983583,1.0,0.0
4.4,-1.4444935614068808,1.0,0.0
4.1680877539231735,-1.4520468960215263,1.0,0.0
3.908734109028227,-1.459462947200791,1.0,0.0
3.6366472284494815,-1.4665961945031714,1.0,0.0
3.366535275321258,-1.4733011174871642,1.0,0.0
3.1131064127778774,-1.4794321957112657,1.0,0.0
2.8910688039536603,-1.4848439087339724,1.0,0.0
2.7151306119829277,-1.4893907361137808,1.0,0.0
2.6,-1.4929271574091874,1.0,0.0
2.5331912246076826,-1.4955794733807422,1.0,0.0
2.50221854240878,-1.4974739847889957,1.0,0.0
2.4945962100060974,-1.498736992394498,1.0,0.0
2.497838484002439,-1.4994947969577994,1.0,0.0
2.49945962100061,-1.4998736992394497,1.0,0.0
2.5,-1.5,1.0,0.0
2.5,-1.5,1.0,0.0
2.5,-1.5,1.0,0.0
2.49,-1.5022556390977444,1.0,0.0
2.46,-1.5090225563909774,1.0,0.0
2.4,-1.5225563909774436,1.0,0.0
2.3,-1.545112781954887,1.0,0.0
2.1499999999999995,-1.5789473684210524,1.0,0.0
1.9424744897959179,-1.6215538847117792,1.0,0.0
1.693367346938775,-1.670426065162907,1.0,0.0
1.4186224489795916,-1.7230576441102754,1.0,0.0
1.1341836734693878,-1.776942355889724,1.0,0.0
0.8559948979591835,-1.8295739348370923,1.0,0.0
0.6,-1.8784461152882201,1.0,0.0
0.38214285714285723,-1.921052631578947,1.0,0.0
0.21836734693877552,-1.9548872180451122,1.0,0.0
0.10918367346938772,-1.9774436090225558,1.0,0.0
0.04367346938775503,-1.990977443609022,1.0,0.0
0.010918367346938782,-1.9977443609022556,1.0,0.0
0.0,-2.0,1.0,0.0
0.0,-2.0,1.0,0.0
0.0,-2.0,1.0,0.0
0.0022556390977443615,-1.96875,1.0,0.0
0.009022556390977446,-1.861875,1.0,0.0
0.022556390977443615,-1.66625,1.0,0.0
0.04511278195488723,-1.4,1.0,0.0
0.07894736842105265,-1.1066489820565906,1.0,0.0
0.12155388471177947,-0.8297209282263628,1.0,0.0
0.1704260651629073,-0.5814898205659074,1.0,0.0
0.2230576441102757,-0.36105784161490667,1.0,0.0
0.2769423558897243,-0.16752717391304345,1.0,0.0
0.32957393483709274,0.0,1.0,0.0
0.3784461152882206,0.14242149758454103,1.0,0.0
0.4210526315789474,0.2601479468599034,1.0,0.0
0.4548872180451128,0.35358997584541063,1.0,0.0
0.4774436090225564,0.4231582125603865,1.0,0.0
0.49097744360902257,0.4692632850241546,1.0,0.0
0.49774436090225566,0.4923158212560386,1.0,0.0
0.5,0.5,1.0,0.0
0.5,0.5,1.0,0.0
0.5,0.5,1.0,0.0
0.49770821835995677,0.5062108326492211,1.0,0.0
0.490832873439827,0.5248433305968842,1.0,0.0
0.47708218359956756,0.5621083264922103,1.0,0.0
0.4541643671991351,0.6242166529844206,1.0,0.0
0.41978764259848644,0.7069470220361026,1.0,0.0
0.3716602281575783,0.8060781456098437,1.0,0.0
0.31560480520560497,0.9173887356682315,1.0,0.0
0.2574440550717605,1.0366575041738535,1.0,0.0
0.20300065908523912,1.1596631630892973,1.0,0.0
0.158097298575235,1.2821844243771503,1.0,0.0
0.1285566548709423,1.4,1.0,0.0
0.12020140930155523,1.5088886019204337,1.0,0.0
0.13885424319626796,1.6046289421010393,1.0,0.0
0.19033783788427464,1.6879533935044688,1.0,0.0
0.28047487469476945,1.7595943290933742,1.0,0.0
0.41508803495694635,1.8202841218304076,1.0,0.0
0.6,1.8707551446782211,1.0,0.0
0.8227936640534635,1.9117397705994668,1.0,0.0
1.0710519213468706,1.9439703725567967,1.0,0.0
1.3323576661097545,1.9681793235128628,1.0,0.0
1.5942937925716487,1.9850989964303174,1.0,0.0
1.844443194962087,1.9954617642718124,1.0,0.0
2.0703887675106025,2.0,1.0,0.0
2.259713404446729,1.9951585142003265,1.0,0.0
2.4,1.9773821174582384,1.0,0.0
2.4977102557511888,1.943115620359182,1.0,0.0
2.5593058732810694,1.8888038334886037,1.0,0.0
2.591248554170415,1.81089156743195,1.0,0.0
2.6,1.7058236327746672,1.0,0.0
2.5920219123505976,1.5700448401022016,1.0,0.0
2.5737759928029815,1.4,1.0,0.0
2.5517239429379255,1.2110624079523058,1.0,0.0
2.5323274643362033,1.018605359443363,1.0,0.0
2.5184728367635447,0.8380021499574158,1.0,0.0
2.5092364183817724,0.6846260749787079,1.0,0.0
2.5036945673527087,0.5738504299914831,1.0,0.0
2.500923641838177,0.5184626074978708,1.0,0.0
