0.5,0.0,1.0,0.0
0.5,0.0,1.0,0.0
0.5,0.0,1.0,0.0
0.5,0.0,1.0,0.0
0.501953125,0.001953125,1.0,0.0
0.509765625,0.009765625,1.0,0.0
0.5291065561343814,0.029296875,1.0,0.0
0.5656449745375256,0.06748912394913081,1.0,0.0
0.625049936343814,0.12933149579652323,1.0,0.0
0.7114590760344188,0.21785998949130808,1.0,0.0
0.8270569030905122,0.33415747898261616,1.0,0.0
0.972074801993266,0.47735371321957826,1.0,0.0
1.1447910322238526,0.6446253161513252,1.0,0.0
1.341530728263444,0.8311957867269878,1.0,0.0
1.5578367551063994,1.0303354988956968,1.0,0.0
1.7892519777470774,1.233361701606583,1.0,0.0
2.031319261179837,1.4296385188087772,1.0,0.0
2.2795814703990374,1.6085300744514104,1.0,0.0
2.5295814703990374,1.7610593407131658,1.0,0.0
2.776862126174196,1.8802024147727268,1.0,0.0
3.016966302718872,1.9608885188087775,1.0,0.0
3.245436865027424,2.0,1.0,0.0
3.457816678094212,1.9963723305250782,1.0,0.0
3.6496486069135945,1.9507941075626958,1.0,0.0
3.81842864147993,1.8660070532915358,1.0,0.0
3.963605896787578,1.746706014890282,1.0,0.0
4.086582612830897,1.5995389645376175,1.0,0.0
4.1891976326243565,1.4317044118694786,1.0,0.0
4.273289799182427,1.2504008665218014,1.0,0.0
4.340697955519577,1.062826838130522,1.0,0.0
4.393260944650276,0.8761808363315765,1.0,0.0
4.432817609588994,0.6976613707609012,1.0,0.0
4.461206793350201,0.534377560380451,1.0,0.0
4.480267338948367,0.3914853991521809,1.0,0.0
4.49183808939796,0.272187756038045,1.0,0.0
4.49775788771345,0.177734375,1.0,0.0
4.499865576909306,0.107421875,1.0,0.0
4.5,0.05859375,1.0,0.0
4.5,0.02734375,1.0,0.0
4.5,0.009765625,1.0,0.0
4.5,0.001953125,1.0,0.0
4.5,0.0,1.0,0.0
