4.0,-2.0,1.0,0.0
4.0,-2.0,1.0,0.0
4.0,-2.0,1.0,0.0
4.0,-2.0,1.0,0.0
3.96875,-1.9977443609022556,1.0,0.0
3.86875,-1.9909774436090226,1.0,0.0
3.69375,-1.9774436090225564,1.0,0.0
3.46875,-1.954887218045113,1.0,0.0
3.2346212121212123,-1.9210526315789476,1.0,0.0
3.032234848484849,-1.8784461152882208,1.0,0.0
2.9024621212121215,-1.829573934837093,1.0,0.0
2.8587002840909093,-1.7769423558897246,1.0,0.0
2.883096590909091,-1.723057644110276,1.0,0.0
2.9577982954545456,-1.6704260651629077,1.0,0.0
3.0649526515151515,-1.6215538847117799,1.0,0.0
3.1867069128787877,-1.578947368421053,1.0,0.0
3.3052083333333333,-1.5451127819548878,1.0,0.0
3.4026041666666664,-1.5225563909774442,1.0,0.0
3.4610416666666666,-1.509022556390978,1.0,0.0
3.4902604166666666,-1.5022556390977444,1.0,0.0
3.5,-1.5,1.0,0.0
3.5,-1.5,1.0,0.0
3.5,-1.5,1.0,0.0
3.4956467096963633,-1.5,1.0,0.0
3.482586838785453,-1.5,1.0,0.0
3.4719966787339174,-1.5,1.0,0.0
3.4750525210084033,-1.5,1.0,0.0
3.502930657075559,-1.5,1.0,0.0
3.5668073784020313,-1.5,1.0,0.0
3.6492312821139428,-1.5,1.0,0.0
3.732750965337415,-1.5,1.0,0.0
3.7999150251985703,-1.5,1.0,0.0
3.8332720588235305,-1.5,1.0,0.0
3.815370663338418,-1.5,1.0,0.0
3.7600094358693545,-1.5,1.0,0.0
3.6845212612298273,-1.5,1.0,0.0
3.606239024233323,-1.5,1.0,0.0
3.542495609693329,-1.5,1.0,0.0
3.5106239024233323,-1.5,1.0,0.0
3.5,-1.5,1.0,0.0
3.5,-1.5,1.0,0.0
3.5,-1.5,1.0,0.0
3.470974103507673,-1.5017902946976593,1.0,0.0
3.3838964140306924,-1.5071611787906376,1.0,0.0
3.2220580175383655,-1.517902946976594,1.0,0.0
3.0,-1.5239314321771948,1.0,0.0
2.7322634473849043,-1.5151624673141066,1.0,0.0
2.433389445662386,-1.481511885308996,1.0,0.0
2.117919080801753,-1.4128955190835288,1.0,0.0
1.8003934387723126,-1.2992292015593718,1.0,0.0
1.495353605543373,-1.1304287656581915,1.0,0.0
1.2173406670842417,-0.896410044301654,1.0,0.0
0.9808957093642269,-0.6183388704114259,1.0,0.0
0.8005598183526361,-0.3241887615118267,1.0,0.0
0.6717484676300713,-0.04193323512717617,1.0,0.0
0.5858742338150281,0.20045419121820596,1.0,0.0
0.5343496935260021,0.375,1.0,0.0
0.5085874233815043,0.46875,1.0,0.0
0.5,0.5,1.0,0.0
0.5,0.5,1.0,0.0
0.5,0.5,1.0,0.0
0.5228119343891403,0.53125,1.0,0.0
0.5912477375565611,0.6091911764705882,1.0,0.0
0.7281193438914026,0.7180147058823529,1.0,0.0
0.9562386877828053,0.8106617647058824,1.0,0.0
1.2671677036199092,0.8332817741143747,1.0,0.0
1.6398513251454423,0.7632741552810278,1.0,0.0
2.0532344861021325,0.6092883293790397,1.0,0.0
2.4862621202327078,0.4112237175816082,1.0,0.0
2.9178791612798958,0.21621769317159087,1.0,0.0
3.3270305429864244,0.07140762943184656,1.0,0.0
3.6926611990950224,0.013366287847798392,1.0,0.0
3.9937160633484163,0.047416429904873936,1.0,0.0
4.210694893341953,0.14763081708849934,1.0,0.0
4.355347446670977,0.2769404085442496,1.0,0.0
4.442138978668391,0.3982761634176998,1.0,0.0
4.485534744667097,0.474569040854425,1.0,0.0
4.5,0.5,1.0,0.0
4.5,0.5,1.0,0.0
4.5,0.5,1.0,0.0
4.5,0.5,1.0,0.0
4.5,0.5,1.0,0.0
4.5,0.5,1.0,0.0
4.5,0.5,1.0,0.0
4.5,0.5,1.0,0.0
4.5,0.5,1.0,0.0
4.5,0.5,1.0,0.0
4.5,0.5,1.0,0.0
4.5,0.5,1.0,0.0
4.5,0.5,1.0,0.0
4.5,0.5,1.0,0.0
4.5,0.5,1.0,0.0
4.5,0.5,1.0,0.0
4.5,0.5,1.0,0.0
4.5,0.5,1.0,0.0
4.5,0.5,1.0,0.0
4.5,0.5,1.0,0.0
4.5,0.5,1.0,0.0
4.5,0.5,1.0,0.0
4.493266111972924,0.53125,1.0,0.0
4.473064447891693,0.625,1.0,0.0
4.432661119729234,0.78125,1.0,0.0
4.365322239458468,0.96875,1.0,0.0
4.264313919052319,1.1534090909090908,1.0,0.0
4.12290227048371,1.3011363636363635,1.0,0.0
3.9466107272128963,1.377840909090909,1.0,0.0
3.7460153422178317,1.370916193181818,1.0,0.0
3.531692168476469,1.2990056818181814,1.0,0.0
3.3142172589667656,1.1807528409090906,1.0,0.0
3.1041666666666665,1.034801136363636,1.0,0.0
2.9121164445541297,0.8797940340909087,1.0,0.0
2.7486426456071076,0.7343749999999997,1.0,0.0
2.624321322803554,0.6171874999999997,1.0,0.0
2.5497285291214213,0.5468749999999997,1.0,0.0
2.5124321322803556,0.51171875,1.0,0.0
2.5,0.5,1.0,0.0
2.5,0.5,1.0,0.0
2.5,0.5,1.0,0.0
2.46875,0.46875,1.0,0.0
2.3695913461538463,0.372608024691358,1.0,0.0
2.195012019230769,0.2091820987654321,1.0,0.0
1.96875,0.007330246913580307,1.0,0.0
1.7145432692307692,-0.19402006172839498,1.0,0.0
1.4561298076923075,-0.3559413580246913,1.0,0.0
1.2172475961538458,-0.4395061728395061,1.0,0.0
1.021634615384615,-0.43337191358024685,1.0,0.0
0.8651442307692303,-0.35744598765432095,1.0,0.0
0.7434294871794866,-0.2316358024691358,1.0,0.0
0.652143429487179,-0.07584876543209879,1.0,0.0
0.586939102564102,0.09000771604938265,1.0,0.0
0.5434695512820507,0.24602623456790113,1.0,0.0
0.5173878205128198,0.37229938271604923,1.0,0.0
0.5043469551282052,0.44891975308641957,1.0,0.0
0.5,0.48722993827160493,1.0,0.0
0.5,0.5,1.0,0.0
0.5,0.5,1.0,0.0
0.5,0.5,1.0,0.0
0.5090225563909775,0.5,1.0,0.0
0.5360902255639098,0.5,1.0,0.0
0.5902255639097745,0.498968192824125,1.0,0.0
0.680451127819549,0.4886320644397975,1.0,0.0
0.8157894736842106,0.46071910081443984,1.0,0.0
0.9862155388471179,0.40695678791547446,1.0,0.0
1.181704260651629,0.31907261171032375,1.0,0.0
1.3922305764411027,0.1887940581664101,1.0,0.0
1.607769423558897,0.007848613251155906,1.0,0.0
1.8182957393483707,-0.2300654853620956,1.0,0.0
2.013784461152882,-0.5,1.0,0.0
2.1842105263157894,-0.7770066929892141,1.0,0.0
2.319548872180451,-1.0361373266563945,1.0,0.0
2.409774436090226,-1.2524436633281972,1.0,0.0
2.4639097744360905,-1.400977465331279,1.0,0.0
2.4909774436090224,-1.4752443663328196,1.0,0.0
2.5,-1.5,1.0,0.0
2.5,-1.5,1.0,0.0
2.5,-1.5,1.0,0.0
2.46875,-1.46875,1.0,0.0
2.38108878968254,-1.375,1.0,0.0
2.2431051587301587,-1.1875,1.0,0.0
2.0921378968253967,-0.8897664835164836,1.0,0.0
1.9655257936507935,-0.4965659340659341,1.0,0.0
1.880351791254136,-0.0453921078921079,1.0,0.0
1.822448831683211,0.4262612387612388,1.0,0.0
1.7579257240530624,0.8809003496503497,1.0,0.0
1.6528912774787337,1.2810314685314685,1.0,0.0
1.4734543010752692,1.5891608391608392,1.0,0.0
1.2169736039577124,1.7945804195804196,1.0,0.0
0.9120579952411072,1.917832167832168,1.0,0.0
0.6014301527062437,1.9794580419580419,1.0,0.0
0.3278127541339114,2.0,1.0,0.0
0.13392847730490048,2.0,1.0,0.0
0.03125,2.0,1.0,0.0
0.0,2.0,1.0,0.0
0.0,2.0,1.0,0.0
0.0,2.0,1.0,0.0
0.0,2.0,1.0,0.0
0.0,2.0,1.0,0.0
0.0,2.0,1.0,0.0
0.0,2.0,1.0,0.0
0.0,2.0,1.0,0.0
0.0,2.0,1.0,0.0
0.0,2.0,1.0,0.0
0.0,2.0,1.0,0.0
0.0,2.0,1.0,0.0
0.0,2.0,1.0,0.0
0.0,2.0,1.0,0.0
0.0,2.0,1.0,0.0
0.0,2.0,1.0,0.0
0.0,2.0,1.0,0.0
0.0,2.0,1.0,0.0
0.0,2.0,1.0,0.0
0.0,2.0,1.0,0.0
0.0,2.0,1.0,0.0
0.0,2.0,1.0,0.0
0.0,2.0,1.0,0.0
0.0,2.0,1.0,0.0
0.0,2.0,1.0,0.0
0.0,1.9990158824312867,1.0,0.0
0.0,1.989209338569371,1.0,0.0
0.003246753246753247,1.962742059689764,1.0,0.0
0.012987012987012988,1.9117757370679767,1.0,0.0
0.032467532467532464,1.8284720619795203,1.0,0.0
0.06493506493506493,1.7049927256999056,1.0,0.0
0.11363636363636363,1.5334994195046436,1.0,0.0
0.18181818181818182,1.3323563681735004,1.0,0.0
0.26022727272727275,1.1199277964862413,1.0,0.0
0.33961038961038964,0.9145779292226317,1.0,0.0
0.41071428571428575,0.7346709911624372,1.0,0.0
0.4642857142857143,0.5985712070854233,1.0,0.0
0.49107142857142855,0.5246428017713559,1.0,0.0
0.5,0.5,1.0,0.0
0.5,0.5,1.0,0.0
0.5,0.5,1.0,0.0
0.5,0.5,1.0,0.0
0.5,0.5,1.0,0.0
0.5289634943225615,0.5,1.0,0.0
0.615853977290246,0.5,1.0,0.0
0.7896349432256151,0.5,1.0,0.0
1.0480198864512302,0.5,1.0,0.0
1.3574723012896528,0.5,1.0,0.0
1.6844556820634446,0.5,1.0,0.0
1.995433523095167,0.5,1.0,0.0
2.2568693187073814,0.5,1.0,0.0
2.4352265632226433,0.5,1.0,0.0
2.5282187509635263,0.5,1.0,0.0
2.5588295567415535,0.5,1.0,0.0
2.550042655368254,0.5,1.0,0.0
2.524841721655156,0.5,1.0,0.0
2.506210430413789,0.5,1.0,0.0
2.5,0.5,1.0,0.0
2.5,0.5,1.0,0.0
2.5,0.5,1.0,0.0
2.5082115219260532,0.5226549543946932,1.0,0.0
2.5328460877042134,0.5906198175787729,1.0,0.0
2.5821152192605332,0.6998132335119276,1.0,0.0
2.6642304385210664,0.8149038461538461,1.0,0.0
2.773000859845228,0.9005602994642175,1.0,0.0
2.9022355975924334,0.92145123740273,1.0,0.0
3.045743766122098,0.8422453039290726,1.0,0.0
3.1973344797936374,0.6386024319792976,1.0,0.0
3.3508168529664664,0.3174325544894573,1.0,0.0
3.5,-0.08310439560439573,1.0,0.0
3.638693035253654,-0.5224111777137664,1.0,0.0
3.7607050730868443,-0.9598905512501595,1.0,0.0
3.8598452278589854,-1.3549452756250797,1.0,0.0
3.929922613929493,-1.6669781102500318,1.0,0.0
3.9719690455717975,-1.869869527562508,1.0,0.0
3.992992261392949,-1.96875,1.0,0.0
