2.5,0.0,1.0,0.0
2.5,0.0,1.0,0.0
2.5,0.0,1.0,0.0
2.5,0.0,1.0,0.0
2.489624060150376,0.0009022556390977447,1.0,0.0
2.458496240601504,0.003609022556390979,1.0,0.0
2.3962406015037594,0.009022556390977448,1.0,0.0
2.292481203007519,0.018045112781954895,1.0,0.0
2.136842105263158,0.03157894736842107,1.0,0.0
1.9408521303258146,0.0486215538847118,1.0,0.0
1.7160401002506265,0.06817042606516294,1.0,0.0
1.4739348370927317,0.08922305764411032,1.0,0.0
1.2260651629072679,0.11077694235588977,1.0,0.0
0.983959899749373,0.13182957393483713,1.0,0.0
0.759147869674185,0.15137844611528825,1.0,0.0
0.5631578947368416,0.16842105263157897,1.0,0.0
0.4075187969924807,0.18195488721804515,1.0,0.0
0.3037593984962401,0.19097744360902258,1.0,0.0
0.24150375939849575,0.19639097744360906,1.0,0.0
0.21037593984962408,0.19909774436090227,1.0,0.0
0.2,0.2,1.0,0.0
0.2,0.2,1.0,0.0
0.2,0.2,1.0,0.0
0.21037593984962408,0.19909774436090227,1.0,0.0
0.24150375939849625,0.19639097744360903,1.0,0.0
0.3037593984962406,0.19097744360902255,1.0,0.0
0.4075187969924812,0.1819548872180451,1.0,0.0
0.5631578947368421,0.16842105263157892,1.0,0.0
0.7591478696741855,0.15137844611528817,1.0,0.0
0.9839598997493735,0.13182957393483702,1.0,0.0
1.2260651629072683,0.11077694235588964,1.0,0.0
1.4739348370927319,0.08922305764411019,1.0,0.0
1.7160401002506267,0.06817042606516283,1.0,0.0
1.9408521303258146,0.04862155388471169,1.0,0.0
2.136842105263158,0.031578947368420957,1.0,0.0
2.292481203007519,0.018045112781954788,1.0,0.0
2.3962406015037594,0.009022556390977342,1.0,0.0
2.458496240601504,0.0036090225563908743,1.0,0.0
2.489624060150376,0.0009022556390977446,1.0,0.0
2.5,0.0,1.0,0.0
2.5,0.0,1.0,0.0
2.5,0.0,1.0,0.0
2.495488721804511,0.006766917293233082,1.0,0.0
2.4819548872180452,0.027067669172932327,1.0,0.0
2.454887218045113,0.06766917293233082,1.0,0.0
2.409774436090226,0.13533834586466165,1.0,0.0
2.342105263157895,0.23684210526315788,1.0,0.0
2.2568922305764416,0.36466165413533835,1.0,0.0
2.159147869674186,0.5112781954887218,1.0,0.0
2.053884711779449,0.6691729323308271,1.0,0.0
1.946115288220552,0.8308270676691729,1.0,0.0
1.840852130325815,0.9887218045112782,1.0,0.0
1.7431077694235593,1.1353383458646618,1.0,0.0
1.6578947368421055,1.2631578947368423,1.0,0.0
1.5902255639097747,1.3646616541353385,1.0,0.0
1.5451127819548873,1.4323308270676693,1.0,0.0
1.518045112781955,1.4729323308270679,1.0,0.0
1.5045112781954888,1.493233082706767,1.0,0.0
1.5,1.5,1.0,0.0
1.5,1.5,1.0,0.0
1.5,1.5,1.0,0.0
1.5112781954887218,1.5,1.0,0.0
1.545112781954887,1.5,1.0,0.0
1.612781954887218,1.5,1.0,0.0
1.725563909774436,1.5,1.0,0.0
1.894736842105263,1.5,1.0,0.0
2.107769423558897,1.5,1.0,0.0
2.352130325814536,1.5,1.0,0.0
2.615288220551378,1.5,1.0,0.0
2.8847117794486214,1.5,1.0,0.0
3.1478696741854635,1.5,1.0,0.0
3.3922305764411025,1.5,1.0,0.0
3.6052631578947367,1.5,1.0,0.0
3.7744360902255636,1.5,1.0,0.0
3.887218045112782,1.5,1.0,0.0
3.9548872180451125,1.5,1.0,0.0
3.988721804511278,1.5,1.0,0.0
4.0,1.5,1.0,0.0
4.0,1.5,1.0,0.0
4.0,1.5,1.0,0.0
3.9977443609022556,1.5,1.0,0.0
3.9909774436090224,1.5,1.0,0.0
3.9774436090225564,1.5,1.0,0.0
3.954887218045113,1.5,1.0,0.0
3.9210526315789473,1.5,1.0,0.0
3.8784461152882206,1.5,1.0,0.0
3.829573934837093,1.5,1.0,0.0
3.7769423558897244,1.5,1.0,0.0
3.7230576441102756,1.5,1.0,0.0
3.670426065162907,1.5,1.0,0.0
3.6215538847117794,1.5,1.0,0.0
3.5789473684210527,1.5,1.0,0.0
3.545112781954887,1.5,1.0,0.0
3.5225563909774436,1.5,1.0,0.0
3.5090225563909776,1.5,1.0,0.0
3.5022556390977444,1.5,1.0,0.0
3.5,1.5,1.0,0.0
3.5,1.5,1.0,0.0
3.5,1.5,1.0,0.0
3.504511278195489,1.5,1.0,0.0
3.5180451127819548,1.5,1.0,0.0
3.545112781954887,1.5,1.0,0.0
3.590225563909774,1.5,1.0,0.0
3.657894736842105,1.5,1.0,0.0
3.7431077694235584,1.5,1.0,0.0
3.840852130325814,1.5,1.0,0.0
3.946115288220551,1.5,1.0,0.0
4.053884711779448,1.5,1.0,0.0
4.159147869674185,1.5,1.0,0.0
4.25689223057644,1.5,1.0,0.0
4.342105263157894,1.5,1.0,0.0
4.409774436090225,1.5,1.0,0.0
4.454887218045112,1.5,1.0,0.0
4.481954887218044,1.5,1.0,0.0
4.495488721804511,1.5,1.0,0.0
4.5,1.5,1.0,0.0
4.5,1.5,1.0,0.0
4.5,1.5,1.0,0.0
4.490977443609022,1.493233082706767,1.0,0.0
4.4639097744360905,1.4729323308270679,1.0,0.0
4.409774436090226,1.4323308270676693,1.0,0.0
4.319548872180452,1.3646616541353385,1.0,0.0
4.18421052631579,1.2631578947368423,1.0,0.0
4.013784461152883,1.1353383458646618,1.0,0.0
3.818295739348372,0.9887218045112783,1.0,0.0
3.607769423558898,0.8308270676691731,1.0,0.0
3.3922305764411034,0.6691729323308273,1.0,0.0
3.1817042606516295,0.511278195488722,1.0,0.0
2.986215538847118,0.3646616541353386,1.0,0.0
2.8157894736842106,0.23684210526315813,1.0,0.0
2.680451127819549,0.1353383458646619,1.0,0.0
2.590225563909774,0.06766917293233107,1.0,0.0
2.5360902255639095,0.02706766917293258,1.0,0.0
2.5090225563909776,0.006766917293233082,1.0,0.0
2.5,0.0,1.0,0.0
2.5,0.0,1.0,0.0
2.5,0.0,1.0,0.0
2.495488721804511,0.0,1.0,0.0
2.4819548872180452,0.0,1.0,0.0
2.454887218045113,0.0,1.0,0.0
2.409774436090226,0.0,1.0,0.0
2.342105263157895,0.0,1.0,0.0
2.2568922305764416,0.0,1.0,0.0
2.159147869674186,0.0,1.0,0.0
2.053884711779449,0.0,1.0,0.0
1.946115288220552,0.0,1.0,0.0
1.840852130325815,0.0,1.0,0.0
1.7431077694235593,0.0,1.0,0.0
1.6578947368421055,0.0,1.0,0.0
1.5902255639097747,0.0,1.0,0.0
1.5451127819548873,0.0,1.0,0.0
1.518045112781955,0.0,1.0,0.0
1.5045112781954888,0.0,1.0,0.0
1.5,0.0,1.0,0.0
1.5,0.0,1.0,0.0
1.5,0.0,1.0,0.0
1.4941353383458646,-0.008120300751879701,1.0,0.0
1.4765413533834586,-0.032481203007518805,1.0,0.0
1.4413533834586465,-0.08120300751879701,1.0,0.0
1.382706766917293,-0.16240601503759403,1.0,0.0
1.294736842105263,-0.2842105263157895,1.0,0.0
1.1839598997493732,-0.4375939849624061,1.0,0.0
1.0568922305764408,-0.6135338345864663,1.0,0.0
0.9200501253132829,-0.8030075187969926,1.0,0.0
0.7799498746867164,-0.9969924812030077,1.0,0.0
0.6431077694235585,-1.186466165413534,1.0,0.0
0.5160401002506262,-1.362406015037594,1.0,0.0
0.40526315789473644,-1.5157894736842106,1.0,0.0
0.31729323308270635,-1.6375939849624062,1.0,0.0
0.25864661654135296,-1.7187969924812032,1.0,0.0
0.2234586466165409,-1.7675187969924815,1.0,0.0
0.20586466165413536,-1.7918796992481203,1.0,0.0
0.2,-1.8,1.0,0.0
0.2,-1.8,1.0,0.0
0.2,-1.8,1.0,0.0
0.21037593984962408,-1.7918796992481203,1.0,0.0
0.24150375939849625,-1.7675187969924813,1.0,0.0
0.3037593984962406,-1.718796992481203,1.0,0.0
0.4075187969924812,-1.637593984962406,1.0,0.0
0.5631578947368421,-1.5157894736842104,1.0,0.0
0.7591478696741855,-1.3624060150375938,1.0,0.0
0.9839598997493735,-1.1864661654135338,1.0,0.0
1.2260651629072683,-0.9969924812030074,1.0,0.0
1.4739348370927319,-0.8030075187969924,1.0,0.0
1.7160401002506267,-0.613533834586466,1.0,0.0
1.9408521303258146,-0.43759398496240587,1.0,0.0
2.136842105263158,-0.28421052631578936,1.0,0.0
2.292481203007519,-0.1624060150375939,1.0,0.0
2.3962406015037594,-0.08120300751879689,1.0,0.0
2.458496240601504,-0.032481203007518694,1.0,0.0
2.489624060150376,-0.0081203007518797,1.0,0.0
2.5,0.0,1.0,0.0
2.5,0.0,1.0,0.0
2.5,0.0,1.0,0.0
2.490075187969925,0.004511278195488723,1.0,0.0
2.4603007518796995,0.018045112781954892,1.0,0.0
2.400751879699248,0.04511278195488723,1.0,0.0
2.3015037593984964,0.09022556390977446,1.0,0.0
2.1526315789473687,0.1578947368421053,1.0,0.0
1.9651629072681707,0.24310776942355894,1.0,0.0
1.7501253132832082,0.3408521303258146,1.0,0.0
1.518546365914787,0.4461152882205514,1.0,0.0
1.2814536340852132,0.5538847117794486,1.0,0.0
1.049874686716792,0.6591478696741855,1.0,0.0
0.8348370927318296,0.7568922305764412,1.0,0.0
0.6473684210526316,0.8421052631578948,1.0,0.0
0.49849624060150377,0.9097744360902256,1.0,0.0
0.39924812030075185,0.9548872180451128,1.0,0.0
0.3396992481203007,0.9819548872180451,1.0,0.0
0.30992481203007516,0.9954887218045113,1.0,0.0
0.3,1.0,1.0,0.0
0.3,1.0,1.0,0.0
0.3,1.0,1.0,0.0
0.30541353383458647,0.9954887218045113,1.0,0.0
0.32165413533834586,0.9819548872180451,1.0,0.0
0.35413533834586464,0.9548872180451128,1.0,0.0
0.4082706766917293,0.9097744360902256,1.0,0.0
0.4894736842105263,0.8421052631578947,1.0,0.0
0.5917293233082707,0.7568922305764411,1.0,0.0
0.7090225563909774,0.6591478696741855,1.0,0.0
0.8353383458646617,0.5538847117794486,1.0,0.0
0.9646616541353384,0.4461152882205514,1.0,0.0
1.0909774436090227,0.3408521303258146,1.0,0.0
1.2082706766917295,0.24310776942355894,1.0,0.0
1.3105263157894738,0.1578947368421053,1.0,0.0
1.3917293233082708,0.09022556390977449,1.0,0.0
1.4458646616541355,0.04511278195488727,1.0,0.0
1.4783458646616543,0.018045112781954944,1.0,0.0
1.4945864661654136,0.004511278195488721,1.0,0.0
1.5,0.0,1.0,0.0
1.5,0.0,1.0,0.0
1.5,0.0,1.0,0.0
1.5045112781954888,0.0,1.0,0.0
1.518045112781955,0.0,1.0,0.0
1.5451127819548873,0.0,1.0,0.0
1.5902255639097747,0.0,1.0,0.0
1.6578947368421055,0.0,1.0,0.0
1.7431077694235593,0.0,1.0,0.0
1.840852130325815,0.0,1.0,0.0
1.946115288220552,0.0,1.0,0.0
2.053884711779449,0.0,1.0,0.0
2.159147869674186,0.0,1.0,0.0
2.2568922305764416,0.0,1.0,0.0
2.342105263157895,0.0,1.0,0.0
2.409774436090226,0.0,1.0,0.0
2.454887218045113,0.0,1.0,0.0
2.4819548872180452,0.0,1.0,0.0
2.495488721804511,0.0,1.0,0.0
2.5,0.0,1.0,0.0
2.5,0.0,1.0,0.0
2.5,0.0,1.0,0.0
2.489624060150376,0.0009022556390977447,1.0,0.0
2.458496240601504,0.003609022556390979,1.0,0.0
2.3962406015037594,0.009022556390977448,1.0,0.0
2.292481203007519,0.018045112781954895,1.0,0.0
2.136842105263158,0.03157894736842107,1.0,0.0
1.9408521303258146,0.0486215538847118,1.0,0.0
1.7160401002506265,0.06817042606516294,1.0,0.0
1.4739348370927317,0.08922305764411032,1.0,0.0
1.2260651629072679,0.11077694235588977,1.0,0.0
0.983959899749373,0.13182957393483713,1.0,0.0
0.759147869674185,0.15137844611528825,1.0,0.0
0.5631578947368416,0.16842105263157897,1.0,0.0
0.4075187969924807,0.18195488721804515,1.0,0.0
0.3037593984962401,0.19097744360902258,1.0,0.0
0.24150375939849575,0.19639097744360906,1.0,0.0
0.21037593984962408,0.19909774436090227,1.0,0.0
0.2,0.2,1.0,0.0
0.2,0.2,1.0,0.0
0.2,0.2,1.0,0.0
0.21037593984962408,0.19909774436090227,1.0,0.0
0.24150375939849625,0.19639097744360903,1.0,0.0
0.3037593984962406,0.19097744360902255,1.0,0.0
0.4075187969924812,0.1819548872180451,1.0,0.0
0.5631578947368421,0.16842105263157892,1.0,0.0
0.7591478696741855,0.15137844611528817,1.0,0.0
0.9839598997493735,0.13182957393483702,1.0,0.0
1.2260651629072683,0.11077694235588964,1.0,0.0
1.4739348370927319,0.08922305764411019,1.0,0.0
1.7160401002506267,0.06817042606516283,1.0,0.0
1.9408521303258146,0.04862155388471169,1.0,0.0
2.136842105263158,0.031578947368420957,1.0,0.0
2.292481203007519,0.018045112781954788,1.0,0.0
2.3962406015037594,0.009022556390977342,1.0,0.0
2.458496240601504,0.0036090225563908743,1.0,0.0
2.489624060150376,0.0009022556390977446,1.0,0.0
2.5,0.0,1.0,0.0
2.5,0.0,1.0,0.0
2.5,0.0,1.0,0.0
2.495488721804511,0.006766917293233082,1.0,0.0
2.4819548872180452,0.027067669172932327,1.0,0.0
2.454887218045113,0.06766917293233082,1.0,0.0
2.409774436090226,0.13533834586466165,1.0,0.0
2.342105263157895,0.23684210526315788,1.0,0.0
2.2568922305764416,0.36466165413533835,1.0,0.0
2.159147869674186,0.5112781954887218,1.0,0.0
2.053884711779449,0.6691729323308271,1.0,0.0
1.946115288220552,0.8308270676691729,1.0,0.0
1.840852130325815,0.9887218045112782,1.0,0.0
1.7431077694235593,1.1353383458646618,1.0,0.0
1.6578947368421055,1.2631578947368423,1.0,0.0
1.5902255639097747,1.3646616541353385,1.0,0.0
1.5451127819548873,1.4323308270676693,1.0,0.0
1.518045112781955,1.4729323308270679,1.0,0.0
1.5045112781954888,1.493233082706767,1.0,0.0
1.5,1.5,1.0,0.0
1.5,1.5,1.0,0.0
1.5,1.5,1.0,0.0
1.5112781954887218,1.5,1.0,0.0
1.545112781954887,1.5,1.0,0.0
1.612781954887218,1.5,1.0,0.0
1.725563909774436,1.5,1.0,0.0
1.894736842105263,1.5,1.0,0.0
2.107769423558897,1.5,1.0,0.0
2.352130325814536,1.5,1.0,0.0
2.615288220551378,1.5,1.0,0.0
2.8847117794486214,1.5,1.0,0.0
3.1478696741854635,1.5,1.0,0.0
3.3922305764411025,1.5,1.0,0.0
3.6052631578947367,1.5,1.0,0.0
3.7744360902255636,1.5,1.0,0.0
3.887218045112782,1.5,1.0,0.0
3.9548872180451125,1.5,1.0,0.0
3.988721804511278,1.5,1.0,0.0
4.0,1.5,1.0,0.0
4.0,1.5,1.0,0.0
4.0,1.5,1.0,0.0
3.9977443609022556,1.5,1.0,0.0
3.9909774436090224,1.5,1.0,0.0
3.9774436090225564,1.5,1.0,0.0
3.954887218045113,1.5,1.0,0.0
3.9210526315789473,1.5,1.0,0.0
3.8784461152882206,1.5,1.0,0.0
3.829573934837093,1.5,1.0,0.0
3.7769423558897244,1.5,1.0,0.0
3.7230576441102756,1.5,1.0,0.0
3.670426065162907,1.5,1.0,0.0
3.6215538847117794,1.5,1.0,0.0
3.5789473684210527,1.5,1.0,0.0
3.545112781954887,1.5,1.0,0.0
3.5225563909774436,1.5,1.0,0.0
3.5090225563909776,1.5,1.0,0.0
3.5022556390977444,1.5,1.0,0.0
3.5,1.5,1.0,0.0
3.5,1.5,1.0,0.0
3.5,1.5,1.0,0.0
3.504511278195489,1.5,1.0,0.0
3.5180451127819548,1.5,1.0,0.0
3.545112781954887,1.5,1.0,0.0
3.590225563909774,1.5,1.0,0.0
3.657894736842105,1.5,1.0,0.0
3.7431077694235584,1.5,1.0,0.0
3.840852130325814,1.5,1.0,0.0
3.946115288220551,1.5,1.0,0.0
4.053884711779448,1.5,1.0,0.0
4.159147869674185,1.5,1.0,0.0
4.25689223057644,1.5,1.0,0.0
4.342105263157894,1.5,1.0,0.0
4.409774436090225,1.5,1.0,0.0
4.454887218045112,1.5,1.0,0.0
4.481954887218044,1.5,1.0,0.0
4.495488721804511,1.5,1.0,0.0
4.5,1.5,1.0,0.0
4.5,1.5,1.0,0.0
4.5,1.5,1.0,0.0
4.490977443609022,1.493233082706767,1.0,0.0
4.4639097744360905,1.4729323308270679,1.0,0.0
4.409774436090226,1.4323308270676693,1.0,0.0
4.319548872180452,1.3646616541353385,1.0,0.0
4.18421052631579,1.2631578947368423,1.0,0.0
4.013784461152883,1.1353383458646618,1.0,0.0
3.818295739348372,0.9887218045112783,1.0,0.0
3.607769423558898,0.8308270676691731,1.0,0.0
3.3922305764411034,0.6691729323308273,1.0,0.0
3.1817042606516295,0.511278195488722,1.0,0.0
2.986215538847118,0.3646616541353386,1.0,0.0
2.8157894736842106,0.23684210526315813,1.0,0.0
2.680451127819549,0.1353383458646619,1.0,0.0
2.590225563909774,0.06766917293233107,1.0,0.0
2.5360902255639095,0.02706766917293258,1.0,0.0
2.5090225563909776,0.006766917293233082,1.0,0.0
2.5,0.0,1.0,0.0
2.5,0.0,1.0,0.0
2.5,0.0,1.0,0.0
2.495488721804511,0.0,1.0,0.0
2.4819548872180452,0.0,1.0,0.0
2.454887218045113,0.0,1.0,0.0
2.409774436090226,0.0,1.0,0.0
2.342105263157895,0.0,1.0,0.0
2.2568922305764416,0.0,1.0,0.0
2.159147869674186,0.0,1.0,0.0
2.053884711779449,0.0,1.0,0.0
1.946115288220552,0.0,1.0,0.0
1.840852130325815,0.0,1.0,0.0
1.7431077694235593,0.0,1.0,0.0
1.6578947368421055,0.0,1.0,0.0
1.5902255639097747,0.0,1.0,0.0
1.5451127819548873,0.0,1.0,0.0
1.518045112781955,0.0,1.0,0.0
1.5045112781954888,0.0,1.0,0.0
1.5,0.0,1.0,0.0
1.5,0.0,1.0,0.0
1.5,0.0,1.0,0.0
1.4941353383458646,-0.008120300751879701,1.0,0.0
1.4765413533834586,-0.032481203007518805,1.0,0.0
1.4413533834586465,-0.08120300751879701,1.0,0.0
1.382706766917293,-0.16240601503759403,1.0,0.0
1.294736842105263,-0.2842105263157895,1.0,0.0
1.1839598997493732,-0.4375939849624061,1.0,0.0
1.0568922305764408,-0.6135338345864663,1.0,0.0
0.9200501253132829,-0.8030075187969926,1.0,0.0
0.7799498746867164,-0.9969924812030077,1.0,0.0
0.6431077694235585,-1.186466165413534,1.0,0.0
0.5160401002506262,-1.362406015037594,1.0,0.0
0.40526315789473644,-1.5157894736842106,1.0,0.0
0.31729323308270635,-1.6375939849624062,1.0,0.0
0.25864661654135296,-1.7187969924812032,1.0,0.0
0.2234586466165409,-1.7675187969924815,1.0,0.0
0.20586466165413536,-1.7918796992481203,1.0,0.0
0.2,-1.8,1.0,0.0
0.2,-1.8,1.0,0.0
0.2,-1.8,1.0,0.0
0.21037593984962408,-1.7918796992481203,1.0,0.0
0.24150375939849625,-1.7675187969924813,1.0,0.0
0.3037593984962406,-1.718796992481203,1.0,0.0
0.4075187969924812,-1.637593984962406,1.0,0.0
0.5631578947368421,-1.5157894736842104,1.0,0.0
0.7591478696741855,-1.3624060150375938,1.0,0.0
0.9839598997493735,-1.1864661654135338,1.0,0.0
1.2260651629072683,-0.9969924812030074,1.0,0.0
1.4739348370927319,-0.8030075187969924,1.0,0.0
1.7160401002506267,-0.613533834586466,1.0,0.0
1.9408521303258146,-0.43759398496240587,1.0,0.0
2.136842105263158,-0.28421052631578936,1.0,0.0
2.292481203007519,-0.1624060150375939,1.0,0.0
2.3962406015037594,-0.08120300751879689,1.0,0.0
2.458496240601504,-0.032481203007518694,1.0,0.0
2.489624060150376,-0.0081203007518797,1.0,0.0
2.5,0.0,1.0,0.0
2.5,0.0,1.0,0.0
2.5,0.0,1.0,0.0
2.490075187969925,0.004511278195488723,1.0,0.0
2.4603007518796995,0.018045112781954892,1.0,0.0
2.400751879699248,0.04511278195488723,1.0,0.0
2.3015037593984964,0.09022556390977446,1.0,0.0
2.1526315789473687,0.1578947368421053,1.0,0.0
1.9651629072681707,0.24310776942355894,1.0,0.0
1.7501253132832082,0.3408521303258146,1.0,0.0
1.518546365914787,0.4461152882205514,1.0,0.0
1.2814536340852132,0.5538847117794486,1.0,0.0
1.049874686716792,0.6591478696741855,1.0,0.0
0.8348370927318296,0.7568922305764412,1.0,0.0
0.6473684210526316,0.8421052631578948,1.0,0.0
0.49849624060150377,0.9097744360902256,1.0,0.0
0.39924812030075185,0.9548872180451128,1.0,0.0
0.3396992481203007,0.9819548872180451,1.0,0.0
0.30992481203007516,0.9954887218045113,1.0,0.0
0.3,1.0,1.0,0.0
0.3,1.0,1.0,0.0
0.3,1.0,1.0,0.0
0.30541353383458647,0.9954887218045113,1.0,0.0
0.32165413533834586,0.9819548872180451,1.0,0.0
0.35413533834586464,0.9548872180451128,1.0,0.0
0.4082706766917293,0.9097744360902256,1.0,0.0
0.4894736842105263,0.8421052631578947,1.0,0.0
0.5917293233082707,0.7568922305764411,1.0,0.0
0.7090225563909774,0.6591478696741855,1.0,0.0
0.8353383458646617,0.5538847117794486,1.0,0.0
0.9646616541353384,0.4461152882205514,1.0,0.0
1.0909774436090227,0.3408521303258146,1.0,0.0
1.2082706766917295,0.24310776942355894,1.0,0.0
1.3105263157894738,0.1578947368421053,1.0,0.0
1.3917293233082708,0.09022556390977449,1.0,0.0
1.4458646616541355,0.04511278195488727,1.0,0.0
1.4783458646616543,0.018045112781954944,1.0,0.0
1.4945864661654136,0.004511278195488721,1.0,0.0
