-2.42,-1.075,1.0,0.0
-2.42,-1.075,1.0,0.0
-2.42,-1.075,1.0,0.0
-2.42,-1.075,1.0,0.0
-2.4183984962406013,-1.0652781954887218,1.0,0.0
-2.413593984962406,-1.0361127819548872,1.0,0.0
-2.403984962406015,-0.977781954887218,1.0,0.0
-2.3879699248120296,-0.880563909774436,1.0,0.0
-2.3639473684210524,-0.7347368421052629,1.0,0.0
-2.333696741854636,-0.5511027568922303,1.0,0.0
-2.2989974937343356,-0.34046365914786936,1.0,0.0
-2.261629072681704,-0.11362155388471143,1.0,0.0
-2.2233709273182956,0.11862155388471216,1.0,0.0
-2.186002506265664,0.3454636591478701,1.0,0.0
-2.1513032581453633,0.556102756892231,1.0,0.0
-2.121052631578947,0.7397368421052636,1.0,0.0
-2.09703007518797,0.8855639097744366,1.0,0.0
-2.0810150375939847,0.9827819548872185,1.0,0.0
-2.0714060150375935,1.0411127819548878,1.0,0.0
-2.0666015037593986,1.070278195488722,1.0,0.0
-2.065,1.08,1.0,0.0
