4.0,-2.0,1.0,0.0
4.0,-2.0,1.0,0.0
4.0,-2.0,1.0,0.0
4.0,-2.0,1.0,0.0
3.9977443609022556,-1.9977443609022556,1.0,0.0
3.9909774436090224,-1.9909774436090226,1.0,0.0
3.9774436090225564,-1.9774436090225564,1.0,0.0
3.954887218045113,-1.954887218045113,1.0,0.0
3.9210526315789473,-1.9210526315789476,1.0,0.0
3.8784461152882206,-1.8784461152882208,1.0,0.0
3.829573934837093,-1.829573934837093,1.0,0.0
3.7769423558897244,-1.7769423558897246,1.0,0.0
3.7230576441102756,-1.723057644110276,1.0,0.0
3.670426065162907,-1.6704260651629077,1.0,0.0
3.6215538847117794,-1.6215538847117799,1.0,0.0
3.5789473684210527,-1.578947368421053,1.0,0.0
3.545112781954887,-1.5451127819548878,1.0,0.0
3.5225563909774436,-1.5225563909774442,1.0,0.0
3.5090225563909776,-1.509022556390978,1.0,0.0
3.5022556390977444,-1.5022556390977444,1.0,0.0
3.5,-1.5,1.0,0.0
3.5,-1.5,1.0,0.0
3.5,-1.5,1.0,0.0
3.46875,-1.5,1.0,0.0
3.371141975308642,-1.5,1.0,0.0
3.203317901234568,-1.5,1.0,0.0
2.9926697530864197,-1.5,1.0,0.0
2.781057098765432,-1.5,1.0,0.0
2.6103395061728394,-1.5,1.0,0.0
2.5223765432098766,-1.5,1.0,0.0
2.5277777777777777,-1.5,1.0,0.0
2.6059027777777777,-1.5,1.0,0.0
2.736111111111111,-1.5,1.0,0.0
2.8977623456790123,-1.5,1.0,0.0
3.070216049382716,-1.5,1.0,0.0
3.232831790123457,-1.5,1.0,0.0
3.364969135802469,-1.5,1.0,0.0
3.4459876543209877,-1.5,1.0,0.0
3.486496913580247,-1.5,1.0,0.0
3.5,-1.5,1.0,0.0
3.5,-1.5,1.0,0.0
3.5,-1.5,1.0,0.0
3.46875,-1.5,1.0,0.0
3.37431640625,-1.5,1.0,0.0
3.1847656250000003,-1.5,1.0,0.0
2.8994140625,-1.4918686224489797,1.0,0.0
2.548828125,-1.4674744897959184,1.0,0.0
2.16357421875,-1.418686224489796,1.0,0.0
1.77421875,-1.337372448979592,1.0,0.0
1.4113281249999998,-1.2154017857142858,1.0,0.0
1.1054687499999998,-1.0446428571428572,1.0,0.0
0.8767438616071426,-0.8169642857142859,1.0,0.0
0.7140066964285715,-0.5552295918367349,1.0,0.0
0.6061104910714288,-0.28230229591836753,1.0,0.0
0.5419084821428575,-0.021045918367347094,1.0,0.0
0.51025390625,0.20567602040816327,1.0,0.0
0.5,0.375,1.0,0.0
0.5,0.46875,1.0,0.0
0.5,0.5,1.0,0.0
0.5,0.5,1.0,0.0
0.5,0.5,1.0,0.0
0.5066194071983062,0.498841059602649,1.0,0.0
0.526477628793225,0.495364238410596,1.0,0.0
0.5661940719830627,0.48841059602649006,1.0,0.0
0.6323881439661255,0.4768211920529801,1.0,0.0
0.7316792519407197,0.46220435193945125,1.0,0.0
0.8706868031051516,0.44616840113528855,1.0,0.0
1.0560302046577275,0.430321665089877,1.0,0.0
1.2943288637967534,0.4162724692526017,1.0,0.0
1.5747358268642668,0.40562913907284764,1.0,0.0
1.8864041402023046,0.4,1.0,0.0
2.2184868501529045,0.4009933774834437,1.0,0.0
2.560137003058103,0.4072658467360454,1.0,0.0
2.900507645259938,0.4174739829706717,1.0,0.0
3.2287518231004464,0.43027436140018915,1.0,0.0
3.534022582921665,0.4443235572374645,1.0,0.0
3.805472971065631,0.4582781456953642,1.0,0.0
4.032256033874382,0.470794701986755,1.0,0.0
4.203524817689955,0.48052980132450335,1.0,0.0
4.3270411499815165,0.4878311258278146,1.0,0.0
4.410566858218234,0.4930463576158941,1.0,0.0
4.461863769869273,0.4965231788079471,1.0,0.0
4.488693712403803,0.4986092715231789,1.0,0.0
4.49881851329099,0.4996523178807947,1.0,0.0
4.5,0.5,1.0,0.0
4.5,0.5,1.0,0.0
4.5,0.5,1.0,0.0
4.5,0.5,1.0,0.0
4.5,0.5,1.0,0.0
4.5,0.5,1.0,0.0
4.5,0.5,1.0,0.0
4.5,0.5,1.0,0.0
4.5,0.5,1.0,0.0
4.5,0.5,1.0,0.0
4.5,0.5,1.0,0.0
4.5,0.5,1.0,0.0
4.5,0.5,1.0,0.0
4.5,0.5,1.0,0.0
4.5,0.5,1.0,0.0
4.5,0.5,1.0,0.0
4.5,0.5,1.0,0.0
4.5,0.5,1.0,0.0
4.5,0.5,1.0,0.0
4.5,0.5,1.0,0.0
4.5,0.5,1.0,0.0
4.5,0.5,1.0,0.0
4.490977443609022,0.5,1.0,0.0
4.4639097744360905,0.5,1.0,0.0
4.409774436090226,0.5,1.0,0.0
4.319548872180452,0.5,1.0,0.0
4.18421052631579,0.5,1.0,0.0
4.013784461152883,0.5,1.0,0.0
3.818295739348372,0.5,1.0,0.0
3.6077694235588984,0.5,1.0,0.0
3.392230576441104,0.5,1.0,0.0
3.18170426065163,0.5,1.0,0.0
2.9862155388471185,0.5,1.0,0.0
2.8157894736842115,0.5,1.0,0.0
2.6804511278195498,0.5,1.0,0.0
2.590225563909775,0.5,1.0,0.0
2.5360902255639104,0.5,1.0,0.0
2.5090225563909776,0.5,1.0,0.0
2.5,0.5,1.0,0.0
2.5,0.5,1.0,0.0
2.5,0.5,1.0,0.0
2.53125,0.5083598410481008,1.0,0.0
2.6528935185185185,0.5334393641924035,1.0,0.0
2.892824074074074,0.5835984104810088,1.0,0.0
3.247685185185185,0.6671968209620176,1.0,0.0
3.6828703703703702,0.7925944366835308,1.0,0.0
4.132523148148148,0.9488692139243372,1.0,0.0
4.526495884773662,1.1250991089632256,1.0,0.0
4.794640946502057,1.3103620780789849,1.0,0.0
4.898060699588477,1.4937360775504036,1.0,0.0
4.829107510288066,1.664299063656271,1.0,0.0
4.611383744855967,1.8111289926753753,1.0,0.0
4.276170010288066,1.9233038208865056,1.0,0.0
3.854746913580247,1.9899015045684512,1.0,0.0
3.378395061728395,2.0,1.0,0.0
2.878395061728395,1.9426772634599412,1.0,0.0
2.378395061728395,1.8070112512270635,1.0,0.0
1.9020432098765432,1.6133299195801556,1.0,0.0
1.4729876543209868,1.3849179755342447,1.0,0.0
1.114876543209876,1.1450601261043571,1.0,0.0
0.8513580246913577,0.9170410783055201,1.0,0.0
0.6756790123456788,0.7241455391527601,1.0,0.0
0.5702716049382716,0.5896582156611042,1.0,0.0
0.5175679012345679,0.522414553915276,1.0,0.0
0.5,0.5,1.0,0.0
0.5,0.5,1.0,0.0
0.5,0.5,1.0,0.0
0.5090225563909775,0.5078107842550048,1.0,0.0
0.5360902255639098,0.5312431370200194,1.0,0.0
0.5902255639097744,0.5781078425500483,1.0,0.0
0.6804511278195489,0.6302532968342491,1.0,0.0
0.8157894736842105,0.6695278958617791,1.0,0.0
0.9862155388471178,0.6777800356217956,1.0,0.0
1.181704260651629,0.6368581121034559,1.0,0.0
1.3922305764411027,0.5286105212959173,1.0,0.0
1.607769423558897,0.3348856591883373,1.0,0.0
1.8182957393483707,0.05837806748466244,1.0,0.0
2.013784461152882,-0.2669677121111556,1.0,0.0
2.1842105263157894,-0.6072071378951702,1.0,0.0
2.319548872180451,-0.9283956681634331,1.0,0.0
2.409774436090226,-1.1965887612119959,1.0,0.0
2.4639097744360905,-1.3778418753369102,1.0,0.0
2.4909774436090224,-1.4694604688342274,1.0,0.0
2.5,-1.5,1.0,0.0
2.5,-1.5,1.0,0.0
2.5,-1.5,1.0,0.0
2.512813683712121,-1.5,1.0,0.0
2.551254734848485,-1.491657281623207,1.0,0.0
2.6281368371212124,-1.4645538770471518,1.0,0.0
2.7250236742424248,-1.408271818449365,1.0,0.0
2.809807054924243,-1.3123931380073774,1.0,0.0
2.8503787878787885,-1.16649986789872,1.0,0.0
2.8146306818181825,-0.9601740403009231,1.0,0.0
2.670454545454546,-0.6829976873915178,1.0,0.0
2.4000000000000004,-0.3245528413480347,1.0,0.0
2.0166666666666666,0.09432846565199504,1.0,0.0
1.5651041666666665,0.5384098684672572,1.0,0.0
1.099702380952381,0.9724550019564366,1.0,0.0
0.6748511904761905,1.3612275009782182,1.0,0.0
0.3449404761904762,1.6694910003912873,1.0,0.0
0.13311011904761905,1.870497750097822,1.0,0.0
0.03125,1.96875,1.0,0.0
