1.5,1.5,1.0,0.0
1.5,1.5,1.0,0.0
1.5,1.5,1.0,0.0
1.5,1.5,1.0,0.0
1.5070485989727105,1.5009225755011597,1.0,0.0
1.5281943958908422,1.503690302004639,1.0,0.0
1.5704859897271053,1.5092257550115977,1.0,0.0
1.6409719794542106,1.5184515100231957,1.0,0.0
1.7334164484949257,1.5322901425405926,1.0,0.0
1.841583480272018,1.5516642280649482,1.0,0.0
1.9592371582082548,1.5740209027246117,1.0,0.0
2.0801415657264037,1.5968073026479324,1.0,0.0
2.1980607862492327,1.6174705639632592,1.0,0.0
2.306758903199509,1.6334578227989416,1.0,0.0
2.4,1.6422162152833284,1.0,0.0
2.471548160073473,1.641192877544769,1.0,0.0
2.5241492431474835,1.6278349457116126,1.0,0.0
2.560549108949586,1.5995895559122082,1.0,0.0
2.5834936172073366,1.5539038442749051,1.0,0.0
2.5957286276482896,1.488224946928053,1.0,0.0
2.6,1.4,1.0,0.0
2.599053593990023,1.2866761396190955,1.0,0.0
2.5956352693459137,1.145700501913689,1.0,0.0
2.592490885795227,0.9810363715536403,1.0,0.0
2.592366303065518,0.7966470332088096,1.0,0.0
2.5941582221389643,0.5964957715490566,1.0,0.0
2.596763343997742,0.38454587124424144,1.0,0.0
2.5990783696240283,0.16476061696422403,1.0,0.0
2.6,-0.058896706621135664,1.0,0.0
2.598424936107834,-0.28246281484197766,1.0,0.0
2.5932498789297074,-0.501974423028442,1.0,0.0
2.583371529447797,-0.7134682465106688,1.0,0.0
2.5676865886442797,-0.9129810006187979,1.0,0.0
2.5450917575013325,-1.0965494006829695,1.0,0.0
2.5144837370011324,-1.2602101620333233,1.0,0.0
2.474759228125856,-1.4,1.0,0.0
2.4358295537505468,-1.5119556299131391,1.0,0.0
2.407606036750247,-1.5985343708679585,1.0,0.0
2.4,-1.6621935419596756,1.0,0.0
2.422922766374848,-1.7053904622835083,1.0,0.0
2.4862856587498334,-1.7305824509346743,1.0,0.0
2.6,-1.7402268270083912,1.0,0.0
2.7739771130003903,-1.7367809095998765,1.0,0.0
3.0038068955373185,-1.7227020178043482,1.0,0.0
3.268851996699603,-1.7004474707170238,1.0,0.0
3.5484750655760617,-1.672474587433121,1.0,0.0
3.8220387512555125,-1.6412406870478575,1.0,0.0
4.068905702826774,-1.609203088656451,1.0,0.0
4.268438569378664,-1.578819111354119,1.0,0.0
4.4,-1.5525460742360793,1.0,0.0
4.474202643779602,-1.5328412963975495,1.0,0.0
4.506231592890973,-1.5187664550843138,1.0,0.0
4.51127193950762,-1.5093832275421568,1.0,0.0
4.504508775803048,-1.5037532910168625,1.0,0.0
4.501127193950762,-1.5009383227542157,1.0,0.0
4.5,-1.5,1.0,0.0
4.5,-1.5,1.0,0.0
4.5,-1.5,1.0,0.0
4.5,-1.5,1.0,0.0
4.5,-1.5,1.0,0.0
4.5,-1.5,1.0,0.0
4.5,-1.5,1.0,0.0
4.5,-1.5,1.0,0.0
4.5,-1.5,1.0,0.0
4.5,-1.5,1.0,0.0
4.5,-1.5,1.0,0.0
4.5,-1.5,1.0,0.0
4.5,-1.5,1.0,0.0
4.5,-1.5,1.0,0.0
4.5,-1.5,1.0,0.0
4.5,-1.5,1.0,0.0
4.5,-1.5,1.0,0.0
4.5,-1.5,1.0,0.0
4.5,-1.5,1.0,0.0
4.5,-1.4909774436090226,1.0,0.0
4.5,-1.4639097744360903,1.0,0.0
4.5,-1.4097744360902256,1.0,0.0
4.5,-1.3195488721804511,1.0,0.0
4.5,-1.1842105263157894,1.0,0.0
4.5,-1.0137844611528821,1.0,0.0
4.5,-0.8182957393483707,1.0,0.0
4.5,-0.6077694235588971,1.0,0.0
4.5,-0.39223057644110254,1.0,0.0
4.5,-0.1817042606516288,1.0,0.0
4.5,0.01378446115288251,1.0,0.0
4.5,0.18421052631578982,1.0,0.0
4.5,0.3195488721804515,1.0,0.0
4.5,0.409774436090226,1.0,0.0
4.5,0.4639097744360907,1.0,0.0
4.5,0.49097744360902257,1.0,0.0
4.5,0.5,1.0,0.0
4.5,0.5,1.0,0.0
4.5,0.5,1.0,0.0
4.5,0.5,1.0,0.0
4.5,0.5,1.0,0.0
4.5,0.5,1.0,0.0
4.5,0.5,1.0,0.0
4.5,0.5,1.0,0.0
4.5,0.5,1.0,0.0
4.5,0.5,1.0,0.0
4.5,0.5,1.0,0.0
4.5,0.5,1.0,0.0
4.5,0.5,1.0,0.0
4.5,0.5,1.0,0.0
4.5,0.5,1.0,0.0
4.5,0.5,1.0,0.0
4.5,0.5,1.0,0.0
4.5,0.5,1.0,0.0
4.5,0.5,1.0,0.0
4.502559655068145,0.5049690204259502,1.0,0.0
4.510238620272582,0.5198760817038007,1.0,0.0
4.525596550681455,0.549690204259502,1.0,0.0
4.551193101362911,0.599380408519004,1.0,0.0
4.589587927385096,0.6739157149082571,1.0,0.0
4.643340683816153,0.7689590752492514,1.0,0.0
4.7059889776087305,0.8801734413639772,1.0,0.0
4.771070415715472,1.0032217650744248,1.0,0.0
4.8321226050890225,1.1337669982025844,1.0,0.0
4.882683152682028,1.2674720925704457,1.0,0.0
4.916289665447134,1.4,1.0,0.0
4.926479750336984,1.5270136723132368,1.0,0.0
4.9067910143042255,1.6441760613321466,1.0,0.0
4.850761064301502,1.7471501188787193,1.0,0.0
4.751927507281461,1.8315987967749454,1.0,0.0
4.603827950196744,1.8966032301240803,1.0,0.0
4.4,1.9440544930236385,1.0,0.0
4.155750704637953,1.9758436595711348,1.0,0.0
3.886387112057326,1.9938618038640836,1.0,0.0
3.6072162702048454,2.0,1.0,0.0
3.3335452270272357,1.9961493220763986,1.0,0.0
3.0806810304712213,1.9842008441907941,1.0,0.0
2.8639307284835276,1.9660456404407014,1.0,0.0
2.6986013690108788,1.9435747849236351,1.0,0.0
2.6,1.91867935173711,1.0,0.0
2.552183669397616,1.8932504149786404,1.0,0.0
2.53587016027478,1.8691790487457416,1.0,0.0
2.531777255702547,1.848356327135928,1.0,0.0
2.52062273875197,1.8326733242467144,1.0,0.0
2.483124392494103,1.8240211141756155,1.0,0.0
2.4,1.8242907710201461,1.0,0.0
2.251967344340714,1.8353733688778209,1.0,0.0
2.0509942085873,1.8591599818461546,1.0,0.0
1.8125554978810055,1.8908319449723554,1.0,0.0
1.552126117363078,1.925570593303632,1.0,0.0
1.2851809721747658,1.9585572618871927,1.0,0.0
1.0271949674573166,1.984973285770246,1.0,0.0
0.793643008351979,2.0,1.0,0.0
0.6,1.9988187396236632,1.0,0.0
0.4617408475426279,1.976610839688444,1.0,0.0
0.3713899436404452,1.928557635241551,1.0,0.0
0.32147168095403433,1.8498404613301924,1.0,0.0
0.3045104521439778,1.7356406530015767,1.0,0.0
0.3130306498708581,1.5811395453029122,1.0,0.0
0.3395566667952577,1.4,1.0,0.0
0.37661289557775907,1.205884878858641,1.0,0.0
0.4167237288789447,1.012457043644636,1.0,0.0
0.4524135593593971,0.8333793561237866,1.0,0.0
0.47620677967969866,0.6823146780618934,1.0,0.0
0.4904827118718796,0.5729258712247575,1.0,0.0
0.4976206779679698,0.5182314678061893,1.0,0.0
0.5,0.5,1.0,0.0
0.5,0.5,1.0,0.0
0.5,0.5,1.0,0.0
0.5,0.5,1.0,0.0
0.5,0.5,1.0,0.0
0.5,0.5,1.0,0.0
0.5,0.5,1.0,0.0
0.5,0.5,1.0,0.0
0.5,0.5,1.0,0.0
0.5,0.5,1.0,0.0
0.5,0.5,1.0,0.0
0.5,0.5,1.0,0.0
0.5,0.5,1.0,0.0
0.5,0.5,1.0,0.0
0.5,0.5,1.0,0.0
0.5,0.5,1.0,0.0
0.5,0.5,1.0,0.0
0.5,0.5,1.0,0.0
0.5,0.5,1.0,0.0
0.49770821835995677,0.5062108326492211,1.0,0.0
0.490832873439827,0.5248433305968842,1.0,0.0
0.47708218359956756,0.5621083264922103,1.0,0.0
0.4541643671991351,0.6242166529844206,1.0,0.0
0.41978764259848644,0.7069470220361026,1.0,0.0
0.3716602281575783,0.8060781456098437,1.0,0.0
0.31560480520560497,0.9173887356682315,1.0,0.0
0.2574440550717605,1.0366575041738535,1.0,0.0
0.20300065908523912,1.1596631630892973,1.0,0.0
0.158097298575235,1.2821844243771503,1.0,0.0
0.1285566548709423,1.4,1.0,0.0
0.12020140930155523,1.5088886019204337,1.0,0.0
0.13885424319626796,1.6046289421010393,1.0,0.0
0.19033783788427464,1.6879533935044688,1.0,0.0
0.28047487469476945,1.7595943290933742,1.0,0.0
0.41508803495694635,1.8202841218304076,1.0,0.0
0.6,1.8707551446782211,1.0,0.0
0.8227936640534635,1.9117397705994668,1.0,0.0
1.0710519213468706,1.9439703725567967,1.0,0.0
1.3323576661097545,1.9681793235128628,1.0,0.0
1.5942937925716487,1.9850989964303174,1.0,0.0
1.844443194962087,1.9954617642718124,1.0,0.0
2.0703887675106025,2.0,1.0,0.0
2.259713404446729,1.9951585142003265,1.0,0.0
2.4,1.9773821174582384,1.0,0.0
2.4977102557511888,1.943115620359182,1.0,0.0
2.5593058732810694,1.8888038334886037,1.0,0.0
2.591248554170415,1.81089156743195,1.0,0.0
2.6,1.7058236327746672,1.0,0.0
2.5920219123505976,1.5700448401022016,1.0,0.0
2.5737759928029815,1.4,1.0,0.0
2.5517239429379255,1.2110624079523058,1.0,0.0
2.5323274643362033,1.018605359443363,1.0,0.0
2.5184728367635447,0.8380021499574158,1.0,0.0
2.5092364183817724,0.6846260749787079,1.0,0.0
2.5036945673527087,0.5738504299914831,1.0,0.0
2.500923641838177,0.5184626074978708,1.0,0.0
2.5,0.5,1.0,0.0
2.5,0.5,1.0,0.0
2.5,0.5,1.0,0.0
2.5,0.5,1.0,0.0
2.5,0.5,1.0,0.0
2.5,0.5,1.0,0.0
2.5,0.5,1.0,0.0
2.5,0.5,1.0,0.0
2.5,0.5,1.0,0.0
2.5,0.5,1.0,0.0
2.5,0.5,1.0,0.0
2.5,0.5,1.0,0.0
2.5,0.5,1.0,0.0
2.5,0.5,1.0,0.0
2.5,0.5,1.0,0.0
2.5,0.5,1.0,0.0
2.5,0.5,1.0,0.0
2.5,0.5,1.0,0.0
2.5,0.5,1.0,0.0
2.5,0.46875,1.0,0.0
2.5,0.375,1.0,0.0
2.5,0.21261479591836735,1.0,0.0
2.5,0.0,1.0,0.0
2.5,-0.24443877551020407,1.0,0.0
2.5,-0.5022959183673469,1.0,0.0
2.5,-0.7551658163265306,1.0,0.0
2.5,-0.984642857142857,1.0,0.0
2.5,-1.1723214285714285,1.0,0.0
2.5,-1.30797193877551,1.0,0.0
2.5,-1.4,1.0,0.0
2.5,-1.456811224489796,1.0,0.0
2.5,-1.486811224489796,1.0,0.0
2.5,-1.4984056122448979,1.0,0.0
2.5,-1.5,1.0,0.0
2.5,-1.5,1.0,0.0
2.5,-1.5,1.0,0.0
2.5,-1.5,1.0,0.0
2.5,-1.5,1.0,0.0
2.5,-1.5,1.0,0.0
2.5,-1.5,1.0,0.0
2.5,-1.5,1.0,0.0
2.5,-1.5,1.0,0.0
2.5,-1.5,1.0,0.0
2.5,-1.5,1.0,0.0
2.5,-1.5,1.0,0.0
2.5,-1.5,1.0,0.0
2.5,-1.5,1.0,0.0
2.5,-1.5,1.0,0.0
2.5,-1.5,1.0,0.0
2.5,-1.5,1.0,0.0
2.5,-1.5,1.0,0.0
2.5,-1.5,1.0,0.0
2.5,-1.5,1.0,0.0
2.5,-1.5,1.0,0.0
2.49,-1.5015109643613394,1.0,0.0
2.46,-1.5060438574453576,1.0,0.0
2.4,-1.5151096436133942,1.0,0.0
2.3,-1.5302192872267883,1.0,0.0
2.1499999999999995,-1.5528837526468795,1.0,0.0
1.9423267808485787,-1.5846140042350072,1.0,0.0
1.693012845465161,-1.621452039687693,1.0,0.0
1.4180906967691704,-1.6594398567014585,1.0,0.0
1.1335928376800308,-1.6946194529728253,1.0,0.0
0.8555517711171661,-1.723032826198315,1.0,0.0
0.6,-1.7407219740744493,1.0,0.0
0.3829700272479565,-1.7437288942977496,1.0,0.0
0.22049435578045945,-1.7280955845647377,1.0,0.0
0.1067662514597121,-1.6898640425719351,1.0,0.0
0.035978980147917616,-1.6250762660158637,1.0,0.0
0.002325807707279137,-1.5297742525930444,1.0,0.0
0.0,-1.4,1.0,0.0
0.023194822888283326,-1.2423207055299794,1.0,0.0
0.06610354223433232,-1.0633035664762327,1.0,0.0
0.12291942390035018,-0.8695157801320095,1.0,0.0
0.18783573374854012,-0.6675245437905596,1.0,0.0
0.25504573764110533,-0.46389705474513276,1.0,0.0
0.31874270144024897,-0.2652005102889788,1.0,0.0
0.3731198910081743,-0.07800210771534741,1.0,0.0
0.4154132606721162,0.09113095568251162,1.0,0.0
0.4471332879200727,0.2356314826113485,1.0,0.0
0.46979045024004157,0.3489322757779135,1.0,0.0
0.4848952251200208,0.4244661378889569,1.0,0.0
0.4939580900480084,0.46978645515558287,1.0,0.0
0.49848952251200207,0.49244661378889565,1.0,0.0
0.5,0.5,1.0,0.0
0.5,0.5,1.0,0.0
0.5,0.5,1.0,0.0
0.5,0.5,1.0,0.0
0.5,0.5,1.0,0.0
0.5,0.5,1.0,0.0
0.5,0.5,1.0,0.0
0.5,0.5,1.0,0.0
0.5,0.5,1.0,0.0
0.5,0.5,1.0,0.0
0.5,0.5,1.0,0.0
0.5,0.5,1.0,0.0
0.5,0.5,1.0,0.0
0.5,0.5,1.0,0.0
0.5,0.5,1.0,0.0
0.5,0.5,1.0,0.0
0.5,0.5,1.0,0.0
0.5,0.5,1.0,0.0
0.5,0.5,1.0,0.0
0.4970001483918617,0.46875,1.0,0.0
0.4880005935674467,0.375,1.0,0.0
0.4700014839186167,0.212915922342513,1.0,0.0
0.44000296783723336,0.0,1.0,0.0
0.3950051937151584,-0.24624553405507799,1.0,0.0
0.33200830994425345,-0.50831844685026,1.0,0.0
0.25858292894070795,-0.7687165054130849,1.0,0.0
0.18229966312071122,-1.0099374767710918,1.0,0.0
0.11072912490045267,-1.2197483185267777,1.0,0.0
0.051441926696121694,-1.4,1.0,0.0
0.01200868092390767,-1.5525434905106164,1.0,0.0
0.0,-1.6792297593784844,1.0,0.0
0.022986496340588067,-1.7819097759234617,1.0,0.0
0.08853878236186126,-1.8624345094654056,1.0,0.0
0.20422747048000894,-1.922654929324174,1.0,0.0
0.3776231731112205,-1.9644220048196241,1.0,0.0
0.6,-1.9895867052716134,1.0,0.0
0.8568384920764917,-2.0,1.0,0.0
1.13361919027084,-1.9975128583246413,1.0,0.0
1.415822635513189,-1.9839762495653948,1.0,0.0
1.6889293687336835,-1.961241143042118,1.0,0.0
1.9384199308624674,-1.9311585080746685,1.0,0.0
2.1497748628296853,-1.8955793139829038,1.0,0.0
2.308474705565481,-1.8563545300866815,1.0,0.0
2.4,-1.8153351257058592,1.0,0.0
2.4410812870633856,-1.7743720701602945,1.0,0.0
2.452009206418115,-1.735316332769845,1.0,0.0
2.4530743977266645,-1.7000188828543683,1.0,0.0
2.4645675006515106,-1.668436953982626,1.0,0.0
2.506779154855131,-1.640364128318855,1.0,0.0
2.6,-1.6155939880272925,1.0,0.0
2.764520675748596,-1.5939201152721751,1.0,0.0
2.989381821763395,-1.5751360922177402,1.0,0.0
3.253053106375782,-1.5590355010282244,1.0,0.0
3.5340041979171413,-1.545411923867865,1.0,0.0
3.8107047647188583,-1.5340589429008988,1.0,0.0
4.061624475112318,-1.5247701402915628,1.0,0.0
4.265232997428903,-1.517339098204094,1.0,0.0
4.4,-1.5115593988027294,1.0,0.0
4.475645151156995,-1.507224624251706,1.0,0.0
4.507880172750851,-1.5041283567152606,1.0,0.0
4.512416786632536,-1.5020641783576303,1.0,0.0
4.5049667146530155,-1.5008256713430521,1.0,0.0
4.501241678663254,-1.500206417835763,1.0,0.0
4.5,-1.5,1.0,0.0
4.5,-1.5,1.0,0.0
4.5,-1.5,1.0,0.0
4.5,-1.5,1.0,0.0
4.5,-1.5,1.0,0.0
4.5,-1.5,1.0,0.0
4.5,-1.5,1.0,0.0
4.5,-1.5,1.0,0.0
4.5,-1.5,1.0,0.0
4.5,-1.5,1.0,0.0
4.5,-1.5,1.0,0.0
4.5,-1.5,1.0,0.0
4.5,-1.5,1.0,0.0
4.5,-1.5,1.0,0.0
4.5,-1.5,1.0,0.0
4.5,-1.5,1.0,0.0
4.5,-1.5,1.0,0.0
4.5,-1.5,1.0,0.0
4.5,-1.5,1.0,0.0
4.494160290203386,-1.5003707113363132,1.0,0.0
4.466240435305079,-1.5014828453452527,1.0,0.0
4.4,-1.5037071133631317,1.0,0.0
4.279198548983072,-1.5074142267262634,1.0,0.0
4.087595646949215,-1.5129748967709609,1.0,0.0
3.8402008585933514,-1.5207598348335376,1.0,0.0
3.5608327947159393,-1.5311397522503065,1.0,0.0
3.273310066117439,-1.5444853603575808,1.0,0.0
3.0014512835983096,-1.5611673704916735,1.0,0.0
2.7690750579590095,-1.5815564939888982,1.0,0.0
2.6,-1.6060234421855677,1.0,0.0
2.5045631780510655,-1.6349389264179952,1.0,0.0
2.461851660441991,-1.6686736580224941,1.0,0.0
2.450952515502562,-1.7075983483353774,1.0,0.0
2.450952811562564,-1.7502842037974462,1.0,0.0
2.440939616951781,-1.7948381161348281,1.0,0.0
2.4,-1.839366977073651,1.0,0.0
2.3072210290370054,-1.8819776783400424,1.0,0.0
2.146456676443963,-1.9207771116601302,1.0,0.0
1.9328109146020394,-1.953872168760042,1.0,0.0
1.6813877158923995,-1.9793697413659057,1.0,0.0
1.40729105269621,-1.9953767212038493,1.0,0.0
1.1256248973946361,-2.0,1.0,0.0
0.8514932223688443,-1.9913464694804859,1.0,0.0
0.6,-1.9675230213714345,1.0,0.0
0.3862492026692692,-1.9266365473989737,1.0,0.0
0.22534480275781787,-1.8667939392892312,1.0,0.0
0.11177724140040564,-1.7861020887683348,1.0,0.0
0.040036959731792165,-1.6826678875624121,1.0,0.0
0.004614398886736964,-1.5545982273975916,1.0,0.0
0.0,-1.4,1.0,0.0
0.020684204206340782,-1.2245489962949059,1.0,0.0
0.06115745264051898,-1.0339210072075777,1.0,0.0
0.11591018643729425,-0.8337918236632839,1.0,0.0
0.1794328467314263,-0.6298372365872925,1.0,0.0
0.24621587465767472,-0.42773303690487197,1.0,0.0
0.3107497113507992,-0.23315501554129056,1.0,0.0
0.3675247979455595,-0.05177896342181659,1.0,0.0
0.411683198630373,0.11071932852828165,1.0,0.0
0.44480199914398316,0.24866406938373586,1.0,0.0
0.4684582852251333,0.35637946821927774,1.0,0.0
0.48422914261256667,0.428189734109639,1.0,0.0
0.4936916570450267,0.47127589364385575,1.0,0.0
0.4984229142612567,0.49281897341096387,1.0,0.0
0.5,0.5,1.0,0.0
0.5,0.5,1.0,0.0
0.5,0.5,1.0,0.0
0.5,0.5,1.0,0.0
0.5,0.5,1.0,0.0
0.5,0.5,1.0,0.0
0.5,0.5,1.0,0.0
0.5,0.5,1.0,0.0
0.5,0.5,1.0,0.0
0.5,0.5,1.0,0.0
0.5,0.5,1.0,0.0
0.5,0.5,1.0,0.0
0.5,0.5,1.0,0.0
0.5,0.5,1.0,0.0
0.5,0.5,1.0,0.0
0.5,0.5,1.0,0.0
0.5,0.5,1.0,0.0
0.5,0.5,1.0,0.0
0.5,0.5,1.0,0.0
0.4974403449318544,0.5049690204259502,1.0,0.0
0.48976137972741757,0.5198760817038007,1.0,0.0
0.4744034493185439,0.549690204259502,1.0,0.0
0.4488068986370878,0.599380408519004,1.0,0.0
0.4104120726149036,0.6739157149082571,1.0,0.0
0.3566593161838457,0.7689590752492514,1.0,0.0
0.2940110223912689,0.8801734413639772,1.0,0.0
0.2289295842845279,1.0032217650744248,1.0,0.0
0.1678773949109774,1.1337669982025844,1.0,0.0
0.11731684731797212,1.2674720925704457,1.0,0.0
0.08371033455286683,1.4,1.0,0.0
0.07352024966301625,1.5270136723132368,1.0,0.0
0.0932089856957751,1.6441760613321466,1.0,0.0
0.14923893569849814,1.7471501188787193,1.0,0.0
0.2480724927185401,1.8315987967749454,1.0,0.0
0.396172049803256,1.8966032301240803,1.0,0.0
0.6,1.9440544930236385,1.0,0.0
0.8442492953620475,1.9758436595711348,1.0,0.0
1.1136128879426739,1.9938618038640836,1.0,0.0
1.3927837297951542,2.0,1.0,0.0
1.666454772972764,1.9961493220763986,1.0,0.0
1.919318969528778,1.9842008441907941,1.0,0.0
2.136069271516472,1.9660456404407014,1.0,0.0
2.3013986309891212,1.9435747849236351,1.0,0.0
2.4,1.91867935173711,1.0,0.0
2.447816330602384,1.8932504149786404,1.0,0.0
2.46412983972522,1.8691790487457416,1.0,0.0
2.468222744297453,1.848356327135928,1.0,0.0
2.47937726124803,1.8326733242467144,1.0,0.0
2.516875607505897,1.8240211141756155,1.0,0.0
2.6,1.8242907710201461,1.0,0.0
2.748032655659286,1.8353733688778209,1.0,0.0
2.9490057914127,1.8591599818461546,1.0,0.0
3.1874445021189945,1.8908319449723554,1.0,0.0
3.447873882636922,1.925570593303632,1.0,0.0
3.7148190278252344,1.9585572618871927,1.0,0.0
3.9728050325426834,1.984973285770246,1.0,0.0
4.206356991648021,2.0,1.0,0.0
4.4,1.9988187396236632,1.0,0.0
4.538259152457372,1.976610839688444,1.0,0.0
4.6286100563595545,1.928557635241551,1.0,0.0
4.678528319045966,1.8498404613301924,1.0,0.0
4.695489547856022,1.7356406530015767,1.0,0.0
4.686969350129142,1.5811395453029122,1.0,0.0
4.660443333204743,1.4,1.0,0.0
4.623387104422242,1.205884878858641,1.0,0.0
4.583276271121056,1.012457043644636,1.0,0.0
4.547586440640604,0.8333793561237866,1.0,0.0
4.523793220320302,0.6823146780618934,1.0,0.0
4.509517288128121,0.5729258712247575,1.0,0.0
4.50237932203203,0.5182314678061893,1.0,0.0
4.5,0.5,1.0,0.0
4.5,0.5,1.0,0.0
4.5,0.5,1.0,0.0
4.5,0.5,1.0,0.0
4.5,0.5,1.0,0.0
4.5,0.5,1.0,0.0
4.5,0.5,1.0,0.0
4.5,0.5,1.0,0.0
4.5,0.5,1.0,0.0
4.5,0.5,1.0,0.0
4.5,0.5,1.0,0.0
4.5,0.5,1.0,0.0
4.5,0.5,1.0,0.0
4.5,0.5,1.0,0.0
4.5,0.5,1.0,0.0
4.5,0.5,1.0,0.0
