1.5,3.5,2
4.5,0.5,2
4.5,2.5,2
0.5,2.5,2
2.5,2.5,2
2.5,0.5,2
0.5,2.5,2
4.5,0.5,2
0.5,2.5,2
4.5,2.5,2
0.5,2.5,2
1.5,3.5,2
0.5,2.5,2
4.5,2.5,2
2.5,0.5,2
0.5,2.5,2
2.5,2.5,2
2.5,0.5,2
0.5,2.5,2
4.5,2.5,2
2.5,2.5,2
0.5,2.5,2
1.5,3.5,2
0.5,2.5,2
2.5,0.5,2
4.5,0.5,2
0.5,2.5,2
4.5,2.5,2
0.5,2.5,2
4.5,0.5,2
2.5,2.5,2
0.5,2.5,2
1.5,3.5,2
2.5,0.5,2
0.5,2.5,2
4.5,2.5,2
0.5,2.5,2
4.5,0.5,2
0.5,2.5,2
1.5,3.5,2
2.5,2.5,2
0.5,2.5,2
2.5,0.5,2
0.5,2.5,2
2.5,2.5,2
1.5,3.5,2
2.5,0.5,2
0.5,2.5,2
4.5,0.5,2
4.5,2.5,2
0.5,2.5,2
2.5,2.5,2
0.5,2.5,2
4.5,0.5,2
0.5,2.5,2
4.5,2.5,2
0.5,2.5,2
2.5,0.5,2
0.5,2.5,2
1.5,3.5,2
0.5,2.5,2
4.5,2.5,2
0.5,2.5,2
2.5,2.5,2
0.5,2.5,2
4.5,0.5,2
0.5,2.5,2
1.5,3.5,2
2.5,0.5,2
0.5,2.5,2
2.5,0.5,2
2.5,2.5,2
0.5,2.5,2
4.5,2.5,2
4.5,0.5,2
2.5,0.5,2
0.5,2.5,2
1.5,3.5,2
2.5,2.5,2
0.5,2.5,2
4.5,2.5,2
4.5,0.5,2
2.5,2.5,2
0.5,2.5,2
1.5,3.5,2
4.5,0.5,2
2.5,2.5,2
0.5,2.5,2
2.5,0.5,2
0.5,2.5,2
1.5,3.5,2
0.5,2.5,2
